%!PS-Adobe-3.0 EPSF-3.0
%%Creator: cairo 1.14.6 (http://cairographics.org)
%%CreationDate: Tue Oct  2 09:06:27 2018
%%Pages: 1
%%DocumentData: Clean7Bit
%%LanguageLevel: 2
%%BoundingBox: 5 5 400 333
%%EndComments
%%BeginProlog
save
50 dict begin
/q { gsave } bind def
/Q { grestore } bind def
/cm { 6 array astore concat } bind def
/w { setlinewidth } bind def
/J { setlinecap } bind def
/j { setlinejoin } bind def
/M { setmiterlimit } bind def
/d { setdash } bind def
/m { moveto } bind def
/l { lineto } bind def
/c { curveto } bind def
/h { closepath } bind def
/re { exch dup neg 3 1 roll 5 3 roll moveto 0 rlineto
      0 exch rlineto 0 rlineto closepath } bind def
/S { stroke } bind def
/f { fill } bind def
/f* { eofill } bind def
/n { newpath } bind def
/W { clip } bind def
/W* { eoclip } bind def
/BT { } bind def
/ET { } bind def
/pdfmark where { pop globaldict /?pdfmark /exec load put }
    { globaldict begin /?pdfmark /pop load def /pdfmark
    /cleartomark load def end } ifelse
/BDC { mark 3 1 roll /BDC pdfmark } bind def
/EMC { mark /EMC pdfmark } bind def
/cairo_store_point { /cairo_point_y exch def /cairo_point_x exch def } def
/Tj { show currentpoint cairo_store_point } bind def
/TJ {
  {
    dup
    type /stringtype eq
    { show } { -0.001 mul 0 cairo_font_matrix dtransform rmoveto } ifelse
  } forall
  currentpoint cairo_store_point
} bind def
/cairo_selectfont { cairo_font_matrix aload pop pop pop 0 0 6 array astore
    cairo_font exch selectfont cairo_point_x cairo_point_y moveto } bind def
/Tf { pop /cairo_font exch def /cairo_font_matrix where
      { pop cairo_selectfont } if } bind def
/Td { matrix translate cairo_font_matrix matrix concatmatrix dup
      /cairo_font_matrix exch def dup 4 get exch 5 get cairo_store_point
      /cairo_font where { pop cairo_selectfont } if } bind def
/Tm { 2 copy 8 2 roll 6 array astore /cairo_font_matrix exch def
      cairo_store_point /cairo_font where { pop cairo_selectfont } if } bind def
/g { setgray } bind def
/rg { setrgbcolor } bind def
/d1 { setcachedevice } bind def
%%EndProlog
%%BeginSetup
%%EndSetup
%%Page: 1 1
%%BeginPageSetup
%%PageBoundingBox: 5 5 400 333
%%EndPageSetup
q 5 5 395 328 rectclip q
0.533333 0.321569 0.321569 rg
171.691 326.739 221.5 -265.945 re f
Q q
128.848 332.407 271.152 -326.738 re W n
q
128 332.407 272 -327 re W n
[ 1 0 0 1 0 -0.59256 ] concat
  q
0.388235 0.498039 0.4 rg
393.418 110.172 m 393.418 2.688 343.914 -84.445 282.848 -84.445 c 221.777
 -84.445 172.273 2.688 172.273 110.172 c 172.273 217.656 221.777 304.789
 282.848 304.789 c 343.914 304.789 393.418 217.656 393.418 110.172 c h
393.418 110.172 m f
0 g
0.979303 w
0 J
0 j
[] 0.0 d
10.433 M q 0.844145 0 0 -1 0 333 cm
466.055 222.828 m 466.055 330.312 407.411 417.445 335.07 417.445 c 262.724
 417.445 204.08 330.312 204.08 222.828 c 204.08 115.344 262.724 28.211 335.07
 28.211 c 407.411 28.211 466.055 115.344 466.055 222.828 c h
466.055 222.828 m S Q
  Q
Q
Q q
128.234 270.919 271.766 -264.898 re W n
q
128 271.407 272 -266 re W n
[ 1 0 0 1 0 -0.59256 ] concat
  q
0.901961 0.568627 0.568627 rg
392.809 88.762 m 392.809 3.789 343.305 -65.094 282.234 -65.094 c 221.168
 -65.094 171.664 3.789 171.664 88.762 c 171.664 173.73 221.168 242.613 282.234
 242.613 c 343.305 242.613 392.809 173.73 392.809 88.762 c h
392.809 88.762 m f
0 g
0.826674 w
0 J
0 j
[] 0.0 d
10.433 M q 1 0 0 -0.936508 0 333 cm
392.809 260.797 m 392.809 351.53 343.305 425.083 282.234 425.083 c 221.168
 425.083 171.664 351.53 171.664 260.797 c 171.664 170.067 221.168 96.515
 282.234 96.515 c 343.305 96.515 392.809 170.067 392.809 260.797 c h
392.809 260.797 m S Q
  Q
Q
Q q
127.379 225.665 272.621 -219.355 re W n
q
127 226.407 273 -221 re W n
[ 1 0 0 1 0 -0.59256 ] concat
  q
0.917647 0.698039 0.698039 rg
391.949 74.926 m 391.949 4.559 342.445 -52.48 281.379 -52.48 c 220.312 
-52.48 170.809 4.559 170.809 74.926 c 170.809 145.289 220.312 202.328 281.379
 202.328 c 342.445 202.328 391.949 145.289 391.949 74.926 c h
391.949 74.926 m f
0 g
0.90844 w
0 J
0 j
[ 0.90844 0.90844] 0 d
10.433 M q 1 0 0 -0.77551 0 333 cm
391.949 332.78 m 391.949 423.517 342.445 497.067 281.379 497.067 c 220.312
 497.067 170.809 423.517 170.809 332.78 c 170.809 242.048 220.312 168.498
 281.379 168.498 c 342.445 168.498 391.949 242.048 391.949 332.78 c h
391.949 332.78 m S Q
  Q
Q
Q q
128.523 192.954 271.477 -186.645 re W n
q
128 193.407 272 -188 re W n
[ 1 0 0 1 0 -0.59256 ] concat
  q
0.941176 0.764706 0.764706 rg
393.094 64.781 m 393.094 4.91 343.59 -43.625 282.523 -43.625 c 221.453 
-43.625 171.949 4.91 171.949 64.781 c 171.949 124.652 221.453 173.188 282.523
 173.188 c 343.59 173.188 393.094 124.652 393.094 64.781 c h
393.094 64.781 m f
0 g
0.984833 w
0 J
0 j
[ 0.984833 0.984833] 0 d
10.433 M q 1 0 0 -0.659864 0 333 cm
393.094 406.476 m 393.094 497.208 343.59 570.762 282.523 570.762 c 221.453
 570.762 171.949 497.208 171.949 406.476 c 171.949 315.743 221.453 242.19
 282.523 242.19 c 343.59 242.19 393.094 315.743 393.094 406.476 c h
393.094 406.476 m S Q
  Q
Q
Q q
127.379 154.384 272.621 -148.238 re W n
q
127 154.407 273 -149 re W n
[ 1 0 0 1 0 -0.59256 ] concat
  q
0.898039 0.772549 0.772549 rg
391.949 52.707 m 391.949 5.156 342.445 -33.391 281.379 -33.391 c 220.312
 -33.391 170.809 5.156 170.809 52.707 c 170.809 100.258 220.312 138.805 
281.379 138.805 c 342.445 138.805 391.949 100.258 391.949 52.707 c h
391.949 52.707 m f
0 g
0.984833 w
0 J
0 j
[ 0.984833 0.984833] 0 d
10.433 M q 1 0 0 -0.524075 0 333 cm
391.949 534.834 m 391.949 625.567 342.445 699.119 281.379 699.119 c 220.312
 699.119 170.809 625.567 170.809 534.834 c 170.809 444.101 220.312 370.549
 281.379 370.549 c 342.445 370.549 391.949 444.101 391.949 534.834 c h
391.949 534.834 m S Q
  Q
Q
Q q
197.875 110.286 170.289 -104.551 re W n
q
197 110.407 172 -105 re W n
[ 1 0 0 1 0 -0.59256 ] concat
  q
0.929412 0.890196 0.890196 rg
342.809 38.75 m 342.809 5.215 315.688 -21.973 282.234 -21.973 c 248.785
 -21.973 221.664 5.215 221.664 38.75 c 221.664 72.285 248.785 99.473 282.234
 99.473 c 315.688 99.473 342.809 72.285 342.809 38.75 c h
342.809 38.75 m f
0 g
0.97393 w
0 J
0 j
[ 0.97393 0.97393] 0 d
10.433 M q 1 0 0 -0.674721 0 333 cm
342.809 436.106 m 342.809 485.809 315.688 526.103 282.234 526.103 c 248.785
 526.103 221.664 485.809 221.664 436.106 c 221.664 386.404 248.785 346.11
 282.234 346.11 c 315.688 346.11 342.809 386.404 342.809 436.106 c h
342.809 436.106 m S Q
  Q
Q
0 g
240.605 51.157 m 240.605 37.743 l 238.16 37.743 l 238.16 36.677 l 247.926
 36.677 l 252.395 36.677 255.793 39.466 255.793 44.318 c 255.793 49.302 
252.395 52.224 247.902 52.224 c 247 51.157 l 248.496 51.157 250.375 50.728
 251.484 49.142 c 252.281 47.989 252.461 46.447 252.461 44.341 c 252.461
 41.868 252.188 40.669 251.461 39.65 c 250.375 38.107 248.383 37.743 247
 37.743 c 243.691 37.743 l 243.691 51.157 l 247 51.157 l 247.902 52.224 
l 238.16 52.224 l 238.16 51.157 l h
240.605 51.157 m f*
267.312 41.618 m 267.523 41.618 l 267.562 41.622 l 267.598 41.622 l 267.633
 41.626 l 267.664 41.634 l 267.699 41.638 l 267.73 41.642 l 267.758 41.65
 l 267.785 41.661 l 267.812 41.669 l 267.836 41.681 l 267.855 41.697 l 267.879
 41.708 l 267.898 41.728 l 267.922 41.747 l 267.934 41.771 l 267.953 41.79
 l 267.965 41.818 l 267.969 41.833 l 267.98 41.845 l 267.984 41.861 l 267.988
 41.88 l 267.996 41.892 l 268.004 41.911 l 268.008 41.927 l 268.012 41.947
 l 268.012 41.966 l 268.02 42.005 l 268.023 42.029 l 268.023 42.052 l 268.031
 42.075 l 268.031 42.122 l 268.035 42.146 l 268.035 42.228 l 268.035 42.935
 267.898 44.583 266.766 45.724 c 265.93 46.536 264.727 46.947 263.16 46.947
 c 259.535 46.947 257.562 44.607 257.562 41.779 c 257.562 38.739 259.828
 36.54 263.477 36.54 c 267.062 36.54 268.035 38.943 268.035 39.329 c 268.035
 39.739 267.602 39.739 267.488 39.739 c 267.105 39.739 267.062 39.626 266.926
 39.263 c 266.445 38.177 265.156 37.45 263.68 37.45 c 260.488 37.45 260.465
 40.462 260.465 41.618 c 260.465 42.364 l 260.508 43.251 260.531 44.204 
261.004 44.95 c 261.598 45.861 262.504 46.126 263.16 46.126 c 265.812 46.126
 265.855 43.161 265.883 42.364 c 260.465 42.364 l 260.465 41.618 l h
267.312 41.618 m f*
271.457 45.677 m 271.457 39.466 l 271.457 37.044 273.43 36.54 275.035 36.54
 c 276.754 36.54 277.777 37.833 277.777 39.489 c 277.777 40.693 l 276.715
 40.693 l 276.715 39.536 l 276.715 37.993 275.988 37.45 275.355 37.45 c 
274.039 37.45 274.039 38.9 274.039 39.423 c 274.039 45.677 l 277.348 45.677
 l 277.348 46.743 l 274.039 46.743 l 274.039 51.068 l 272.977 51.068 l 272.953
 48.802 271.844 46.56 269.598 46.489 c 269.598 45.677 l h
271.457 45.677 m f*
303.355 50.618 m 303.367 50.65 l 303.379 50.685 l 303.391 50.716 l 303.414
 50.771 l 303.422 50.798 l 303.438 50.822 l 303.461 50.868 l 303.473 50.884
 l 303.488 50.907 l 303.5 50.923 l 303.539 50.954 l 303.555 50.974 l 303.574
 50.982 l 303.598 50.993 l 303.621 51.009 l 303.641 51.017 l 303.668 51.029
 l 303.699 51.036 l 303.734 51.044 l 303.77 51.056 l 303.805 51.064 l 303.824
 51.064 l 303.848 51.068 l 303.863 51.072 l 303.887 51.075 l 303.91 51.075
 l 303.934 51.083 l 303.961 51.087 l 303.984 51.091 l 304.012 51.091 l 304.066
 51.099 l 304.094 51.099 l 304.125 51.103 l 304.152 51.111 l 304.184 51.111
 l 304.219 51.114 l 304.672 51.157 305.145 51.157 305.508 51.157 c 305.508
 52.224 l 300.004 52.224 l 300.004 51.157 l 300.566 51.157 301.66 51.157
 302.312 50.907 c 298.414 40.782 l 294.402 51.157 l 296.578 51.157 l 296.578
 52.224 l 289.148 52.224 l 289.148 51.157 l 291.094 51.157 l 292.023 48.755
 l 288.941 40.782 l 284.93 51.157 l 287.105 51.157 l 287.105 52.224 l 279.676
 52.224 l 279.676 51.157 l 281.625 51.157 l 287.059 37.087 l 287.195 36.724
 287.285 36.497 287.855 36.497 c 288.418 36.497 288.512 36.724 288.648 37.087
 c 292.59 47.282 l 296.535 37.087 l 296.668 36.724 296.758 36.497 297.328
 36.497 c 297.895 36.497 297.988 36.724 298.117 37.087 c h
303.355 50.618 m f*
313.984 51.904 m 313.949 51.986 l 313.914 52.056 l 313.887 52.099 l 313.863
 52.142 l 313.84 52.177 l 313.812 52.216 l 313.793 52.247 l 313.766 52.279
 l 313.742 52.306 l 313.688 52.353 l 313.664 52.372 l 313.609 52.411 l 313.582
 52.423 l 313.555 52.439 l 313.523 52.447 l 313.496 52.454 l 313.469 52.466
 l 313.438 52.474 l 313.406 52.478 l 313.379 52.482 l 313.344 52.486 l 313.312
 52.493 l 313.281 52.493 l 313.25 52.497 l 313.078 52.497 l 312.441 52.497
 312.348 52.314 312.195 51.904 c 306.57 38.267 l 306.434 37.923 306.371 
37.743 304.648 37.743 c 304.168 37.743 l 304.168 36.677 l 309.816 36.677
 l 309.816 37.743 l 309.77 37.743 307.797 37.743 307.797 38.04 c 307.797
 38.06 307.863 38.29 307.887 38.31 c 309.02 41.052 l 309.473 42.118 l 312.059
 48.415 l 314.637 42.118 l 309.473 42.118 l 309.02 41.052 l 315.094 41.052
 l 316.453 37.743 l 314.301 37.743 l 314.301 36.677 l 321.984 36.677 l 321.984
 37.743 l 319.781 37.743 l h
313.984 51.904 m f*
Q q
0 g
330.945 109.009 m 331.137 91.173 l 332.52 91.189 l 332.488 94.372 l 349.762
 94.56 l 349.797 91.376 l 351.18 91.388 l 351.059 102.739 l 349.672 102.724
 l 349.715 98.743 l 341.758 98.657 l 341.742 100.134 l 341.711 102.966 342.973
 103.243 345.156 103.267 c 345.141 104.654 l 336.859 104.564 l 336.871 103.177
 l 339.055 103.2 340.324 102.978 340.355 100.122 c 340.371 98.642 l 332.441
 98.556 l 332.398 102.685 l 332.348 107.431 334.605 108.138 338.051 108.614
 c 338.035 109.997 l h
330.945 109.009 m f*
337.629 118.005 m 337.914 112.88 l 339.301 112.892 l 339.281 114.634 339.281
 114.841 340.434 114.853 c 349.543 114.95 l 349.562 112.915 l 350.949 112.931
 l 350.871 119.978 l 349.488 119.962 l 349.508 118.134 l h
337.629 118.005 m f*
332.703 118.251 m 332.578 118.243 l 332.461 118.236 l 332.344 118.216 l
 332.23 118.193 l 332.117 118.165 l 332.008 118.134 l 331.898 118.091 l 
331.793 118.052 l 331.695 118.001 l 331.594 117.954 l 331.5 117.892 l 331.406
 117.833 l 331.316 117.767 l 331.23 117.697 l 331.148 117.622 l 331.07 117.544
 l 330.996 117.462 l 330.926 117.376 l 330.859 117.29 l 330.797 117.2 l 
330.738 117.103 l 330.688 117.009 l 330.633 116.907 l 330.594 116.806 l 
330.555 116.7 l 330.52 116.599 l 330.492 116.486 l 330.469 116.38 l 330.445
 116.267 l 330.434 116.154 l 330.426 116.04 l 330.426 115.923 l 330.441 
114.657 331.48 113.638 332.754 113.65 c 334.02 113.665 335.039 114.704 335.023
 115.974 c 335.012 117.208 334 118.263 332.703 118.251 c h
332.703 118.251 m f*
340.34 123.669 m 349.445 123.767 l 349.469 121.732 l 350.852 121.747 l 
350.773 129.173 l 349.387 129.161 l 349.41 127.122 l 343.25 127.056 l 340.035
 127.025 338.566 129.544 338.543 131.404 c 338.535 132.404 339.145 133.032
 341.387 133.056 c 349.344 133.142 l 349.367 131.107 l 350.75 131.122 l 
350.672 138.556 l 349.285 138.54 l 349.309 136.505 l 341.676 136.423 l 338.578
 136.388 337.449 134.782 337.48 131.837 c 337.512 129.009 339.203 127.458
 340.715 126.712 c 337.535 126.677 l 337.82 121.607 l 339.207 121.622 l 
339.188 123.45 339.184 123.657 340.34 123.669 c h
340.34 123.669 m f*
332.191 170.677 m 332.148 170.693 l 332.102 170.704 l 332.059 170.72 l 
332.023 170.732 l 331.988 170.751 l 331.953 170.763 l 331.922 170.779 l 
331.895 170.798 l 331.863 170.81 l 331.84 170.825 l 331.812 170.845 l 331.793
 170.861 l 331.77 170.884 l 331.75 170.907 l 331.727 170.931 l 331.715 170.954
 l 331.695 170.986 l 331.68 171.013 l 331.668 171.044 l 331.652 171.079 
l 331.641 171.118 l 331.629 171.161 l 331.605 171.255 l 331.605 171.279 
l 331.598 171.31 l 331.594 171.333 l 331.586 171.361 l 331.586 171.392 l
 331.578 171.419 l 331.574 171.458 l 331.566 171.486 l 331.566 171.521 l
 331.559 171.556 l 331.555 171.591 l 331.555 171.626 l 331.547 171.669 l
 331.539 171.704 l 331.539 171.747 l 331.535 171.794 l 331.469 172.38 331.461
 172.993 331.457 173.466 c 330.07 173.454 l 330.148 166.29 l 331.535 166.306
 l 331.527 167.04 331.512 168.462 331.828 169.318 c 345.055 164.388 l 331.613
 159.021 l 331.582 161.849 l 330.199 161.837 l 330.301 152.173 l 331.688
 152.189 l 331.66 154.72 l 334.77 155.962 l 345.188 152.068 l 331.746 146.7
 l 331.715 149.529 l 330.332 149.517 l 330.434 139.853 l 331.82 139.864 
l 331.793 142.4 l 350.02 149.669 l 350.492 149.849 350.785 149.974 350.777
 150.712 c 350.77 151.447 350.473 151.56 349.996 151.732 c 336.68 156.72
 l 349.887 161.993 l 350.359 162.173 350.652 162.294 350.645 163.032 c 350.637
 163.771 350.34 163.888 349.863 164.056 c h
332.191 170.677 m f*
330.367 184.482 m 330.332 184.47 l 330.297 184.45 l 330.262 184.439 l 330.23
 184.419 l 330.172 184.392 l 330.113 184.357 l 330.062 184.325 l 330.016
 184.294 l 329.969 184.259 l 329.926 184.228 l 329.887 184.193 l 329.852
 184.161 l 329.82 184.126 l 329.793 184.091 l 329.762 184.06 l 329.715 183.989
 l 329.699 183.954 l 329.68 183.919 l 329.668 183.876 l 329.66 183.841 l
 329.648 183.806 l 329.637 183.763 l 329.629 183.724 l 329.625 183.685 l
 329.617 183.646 l 329.613 183.603 l 329.613 183.564 l 329.609 183.521 l
 329.609 183.294 l 329.621 182.466 329.859 182.353 330.391 182.157 c 348.215
 175.032 l 348.66 174.861 348.895 174.779 348.922 172.536 c 348.926 171.915
 l 350.312 171.931 l 350.234 179.275 l 348.848 179.259 l 348.848 179.2 348.875
 176.634 348.492 176.626 c 348.461 176.626 348.164 176.712 348.137 176.743
 c 344.559 178.177 l 343.16 178.755 l 334.934 182.029 l 343.086 185.47 l
 343.16 178.755 l 344.559 178.177 l 344.473 186.079 l 348.754 187.892 l 
348.785 185.095 l 350.168 185.111 l 350.062 195.103 l 348.676 195.091 l 
348.707 192.224 l h
330.367 184.482 m f*
263.949 152.958 m 263.949 159.165 l 261.543 159.056 l 261.543 158.419 l
 262.387 158.419 262.484 158.419 262.484 157.888 c 262.484 150.38 l 261.543
 150.38 l 261.543 149.743 l 264.816 149.743 l 264.816 150.38 l 263.879 150.38
 l 263.879 152.107 l 264.277 152.415 264.383 152.497 264.656 152.689 c 266.027
 150.978 l 266.148 150.814 266.367 150.544 266.367 150.501 c 266.367 150.38
 266.121 150.38 265.945 150.38 c 265.945 149.743 l 269.012 149.743 l 269.012
 150.38 l 268.781 150.38 l 268.199 150.38 268.156 150.435 267.98 150.654
 c 265.688 153.517 l 267.449 154.888 l 267.641 155.04 267.766 155.134 268.676
 155.134 c 268.676 155.771 l 266.055 155.771 l 266.055 155.134 l 266.367
 155.134 266.406 155.091 266.512 154.986 c h
263.949 152.958 m f*
283.734 158.095 m 283.742 158.114 l 283.746 158.134 l 283.754 158.154 l
 283.77 158.185 l 283.773 158.204 l 283.781 158.216 l 283.793 158.232 l 
283.797 158.243 l 283.812 158.267 l 283.832 158.286 l 283.844 158.294 l 
283.863 158.314 l 283.879 158.322 l 283.891 158.329 l 283.922 158.337 l 
283.941 158.345 l 283.961 158.349 l 283.98 158.357 l 284.004 158.361 l 284.016
 158.361 l 284.027 158.364 l 284.039 158.364 l 284.051 158.368 l 284.066
 158.368 l 284.078 158.372 l 284.098 158.376 l 284.125 158.376 l 284.145
 158.38 l 284.16 158.384 l 284.195 158.384 l 284.211 158.388 l 284.23 158.388
 l 284.25 158.392 l 284.523 158.419 284.805 158.419 285.023 158.419 c 285.023
 159.056 l 281.727 159.056 l 281.727 158.419 l 282.062 158.419 282.719 158.419
 283.109 158.267 c 280.773 152.2 l 278.371 158.419 l 279.672 158.419 l 279.672
 159.056 l 275.223 159.056 l 275.223 158.419 l 276.387 158.419 l 276.945
 156.978 l 275.098 152.2 l 272.695 158.419 l 274 158.419 l 274 159.056 l
 269.547 159.056 l 269.547 158.419 l 270.715 158.419 l 273.973 149.989 l
 274.051 149.771 274.105 149.634 274.449 149.634 c 274.785 149.634 274.84
 149.771 274.922 149.989 c 277.285 156.095 l 279.648 149.989 l 279.727 149.771
 279.781 149.634 280.121 149.634 c 280.465 149.634 280.52 149.771 280.598
 149.989 c h
283.734 158.095 m f*
290.102 158.864 m 290.094 158.88 l 290.086 158.9 l 290.082 158.915 l 290.074
 158.927 l 290.043 158.982 l 290.031 159.005 l 290 159.052 l 289.984 159.068
 l 289.969 159.087 l 289.957 159.107 l 289.941 159.118 l 289.922 159.134
 l 289.91 159.146 l 289.879 159.169 l 289.859 159.177 l 289.844 159.185 
l 289.824 159.189 l 289.809 159.197 l 289.793 159.2 l 289.754 159.208 l 
289.738 159.212 l 289.719 159.212 l 289.699 159.216 l 289.68 159.216 l 289.66
 159.22 l 289.559 159.22 l 289.176 159.22 289.121 159.111 289.031 158.864
 c 285.66 150.693 l 285.578 150.489 285.539 150.38 284.508 150.38 c 284.223
 150.38 l 284.223 149.743 l 287.605 149.743 l 287.605 150.38 l 287.578 150.38
 286.395 150.38 286.395 150.556 c 286.395 150.572 286.434 150.708 286.449
 150.72 c 287.129 152.361 l 287.398 153.001 l 288.949 156.775 l 290.492 
153.001 l 287.398 153.001 l 287.129 152.361 l 290.766 152.361 l 291.582 
150.38 l 290.293 150.38 l 290.293 149.743 l 294.895 149.743 l 294.895 150.38
 l 293.574 150.38 l h
290.102 158.864 m f*
247.672 178.001 m 247.672 178.029 l 247.668 178.032 l 247.668 178.036 l
 247.66 178.044 l 247.66 178.052 l 247.656 178.06 l 247.652 178.064 l 247.645
 178.079 l 247.637 178.087 l 247.633 178.095 l 247.625 178.103 l 247.617
 178.114 l 247.613 178.118 l 247.609 178.126 l 247.602 178.13 l 247.59 178.142
 l 247.586 178.15 l 247.574 178.161 l 247.57 178.169 l 247.562 178.173 l
 247.547 178.189 l 247.543 178.2 l 247.527 178.216 l 247.516 178.224 l 247.5
 178.239 l 247.492 178.251 l 247.48 178.259 l 247.473 178.271 l 247.453 
178.29 l 247.441 178.298 l 245.742 180.013 245.309 182.575 245.309 184.654
 c 245.309 187.017 245.824 189.38 247.496 191.075 c 247.672 191.239 247.672
 191.267 247.672 191.306 c 247.672 191.4 247.617 191.443 247.535 191.443
 c 247.398 191.443 246.18 190.517 245.379 188.794 c 244.688 187.302 244.523
 185.794 244.523 184.654 c 244.523 183.595 244.672 181.95 245.418 180.415
 c 246.234 178.747 247.398 177.864 247.535 177.864 c 247.617 177.864 247.672
 177.907 247.672 178.001 c h
247.672 178.001 m f*
251.262 184.474 m 251.262 190.681 l 248.859 190.572 l 248.859 189.935 l
 249.699 189.935 249.797 189.935 249.797 189.407 c 249.797 181.896 l 248.859
 181.896 l 248.859 181.259 l 252.133 181.259 l 252.133 181.896 l 251.195
 181.896 l 251.195 183.622 l 251.59 183.935 251.695 184.013 251.969 184.204
 c 253.34 182.493 l 253.461 182.329 253.68 182.06 253.68 182.021 c 253.68
 181.896 253.434 181.896 253.258 181.896 c 253.258 181.259 l 256.328 181.259
 l 256.328 181.896 l 256.094 181.896 l 255.512 181.896 255.473 181.95 255.293
 182.169 c 253 185.032 l 254.766 186.404 l 254.957 186.556 255.078 186.65
 255.988 186.65 c 255.988 187.286 l 253.367 187.286 l 253.367 186.65 l 253.68
 186.65 253.723 186.607 253.828 186.501 c h
251.262 184.474 m f*
265.086 184.384 m 268.871 184.384 l 269.062 184.384 269.32 184.384 269.32
 184.654 c 269.32 184.927 269.062 184.927 268.871 184.927 c 265.086 184.927
 l 265.086 188.728 l 265.086 188.915 265.086 189.173 264.812 189.173 c 264.543
 189.173 264.543 188.915 264.543 188.728 c 264.543 184.927 l 260.738 184.927
 l 260.547 184.927 260.293 184.927 260.293 184.654 c 260.293 184.384 260.547
 184.384 260.738 184.384 c 264.543 184.384 l 264.543 180.579 l 264.543 180.388
 264.543 180.134 264.812 180.134 c 265.086 180.134 265.086 180.388 265.086
 180.579 c h
265.086 184.384 m f*
277.965 189.72 m 277.965 189.845 l 277.961 189.868 l 277.961 189.911 l 
277.953 189.95 l 277.953 189.97 l 277.945 189.986 l 277.941 190.001 l 277.934
 190.021 l 277.93 190.032 l 277.922 190.048 l 277.914 190.06 l 277.891 190.083
 l 277.879 190.091 l 277.867 190.103 l 277.836 190.118 l 277.824 190.122
 l 277.809 190.13 l 277.797 190.134 l 277.789 190.138 l 277.766 190.138 
l 277.742 190.146 l 277.719 190.146 l 277.703 190.15 l 277.676 190.15 l 
277.66 190.154 l 277.613 190.154 l 277.465 190.154 277.438 190.154 277.312
 190.056 c 276.27 189.282 274.871 189.282 274.586 189.282 c 274.312 189.282
 l 274.312 188.646 l 274.586 188.646 l 274.805 188.646 275.551 188.657 276.352
 188.915 c 276.352 181.896 l 274.461 181.896 l 274.461 181.259 l 279.867
 181.259 l 279.867 181.896 l 277.965 181.896 l h
277.965 189.72 m f*
284.988 184.654 m 284.984 184.755 l 284.984 184.966 l 284.98 185.079 l 
284.969 185.306 l 284.953 185.548 l 284.93 185.798 l 284.902 186.052 l 284.863
 186.322 l 284.82 186.595 l 284.766 186.872 l 284.703 187.154 l 284.629 
187.443 l 284.547 187.732 l 284.453 188.017 l 284.344 188.31 l 284.285 188.454
 l 284.227 188.603 l 284.094 188.892 l 283.277 190.56 282.109 191.443 281.973
 191.443 c 281.895 191.443 281.84 191.388 281.84 191.306 c 281.84 191.267
 281.84 191.239 282.094 190.993 c 283.426 189.65 284.203 187.489 284.203
 184.654 c 284.203 182.329 283.695 179.943 282.016 178.232 c 281.84 178.068
 281.84 178.044 281.84 178.001 c 281.84 177.919 281.895 177.864 281.973 
177.864 c 282.109 177.864 283.332 178.786 284.133 180.513 c 284.824 182.005
 284.988 183.513 284.988 184.654 c h
284.988 184.654 m f*
300.758 189.611 m 300.766 189.63 l 300.77 189.65 l 300.785 189.689 l 300.793
 189.704 l 300.797 189.72 l 300.805 189.732 l 300.812 189.747 l 300.828 
189.771 l 300.836 189.786 l 300.855 189.806 l 300.867 189.814 l 300.875 
189.822 l 300.887 189.829 l 300.902 189.837 l 300.914 189.845 l 300.93 189.849
 l 300.945 189.857 l 300.965 189.861 l 300.984 189.868 l 301.004 189.872
 l 301.027 189.876 l 301.039 189.876 l 301.062 189.884 l 301.09 189.884 
l 301.102 189.888 l 301.133 189.896 l 301.164 189.896 l 301.18 189.9 l 301.199
 189.9 l 301.219 189.904 l 301.254 189.904 l 301.273 189.907 l 301.543 189.935
 301.828 189.935 302.047 189.935 c 302.047 190.572 l 298.746 190.572 l 298.746
 189.935 l 299.086 189.935 299.738 189.935 300.133 189.786 c 297.797 183.716
 l 295.391 189.935 l 296.695 189.935 l 296.695 190.572 l 292.246 190.572
 l 292.246 189.935 l 293.41 189.935 l 293.969 188.497 l 292.121 183.716 
l 289.719 189.935 l 291.02 189.935 l 291.02 190.572 l 286.57 190.572 l 286.57
 189.935 l 287.734 189.935 l 290.992 181.505 l 291.074 181.286 291.129 181.15
 291.469 181.15 c 291.809 181.15 291.863 181.286 291.945 181.505 c 294.309
 187.614 l 296.672 181.505 l 296.75 181.286 296.805 181.15 297.145 181.15
 c 297.484 181.15 297.539 181.286 297.621 181.505 c h
300.758 189.611 m f*
307.125 190.38 m 307.117 190.4 l 307.109 190.415 l 307.105 190.431 l 307.098
 190.443 l 307.051 190.525 l 307.039 190.544 l 307.023 190.568 l 306.992
 190.607 l 306.98 190.622 l 306.961 190.634 l 306.934 190.661 l 306.918 
190.673 l 306.898 190.685 l 306.867 190.7 l 306.848 190.704 l 306.832 190.712
 l 306.816 190.716 l 306.797 190.724 l 306.777 190.724 l 306.762 190.728
 l 306.742 190.732 l 306.703 190.732 l 306.684 190.736 l 306.582 190.736
 l 306.199 190.736 306.145 190.626 306.051 190.38 c 302.684 182.212 l 302.602
 182.005 302.562 181.896 301.531 181.896 c 301.246 181.896 l 301.246 181.259
 l 304.625 181.259 l 304.625 181.896 l 304.598 181.896 303.418 181.896 303.418
 182.075 c 303.418 182.087 303.457 182.224 303.473 182.239 c 304.148 183.88
 l 304.422 184.521 l 305.969 188.29 l 307.516 184.521 l 304.422 184.521 
l 304.148 183.88 l 307.789 183.88 l 308.602 181.896 l 307.312 181.896 l 
307.312 181.259 l 311.918 181.259 l 311.918 181.896 l 310.598 181.896 l 
h
307.125 190.38 m f*
265.797 118.247 m 265.797 118.372 l 265.793 118.4 l 265.793 118.419 l 265.789
 118.443 l 265.789 118.462 l 265.785 118.482 l 265.781 118.497 l 265.777
 118.517 l 265.773 118.532 l 265.766 118.548 l 265.762 118.56 l 265.75 118.575
 l 265.734 118.599 l 265.723 118.614 l 265.711 118.622 l 265.695 118.634
 l 265.68 118.642 l 265.672 118.642 l 265.664 118.65 l 265.656 118.654 l
 265.648 118.654 l 265.637 118.661 l 265.629 118.661 l 265.605 118.669 l
 265.586 118.669 l 265.57 118.673 l 265.562 118.677 l 265.508 118.677 l 
265.488 118.681 l 265.445 118.681 l 265.293 118.681 265.266 118.681 265.145
 118.587 c 264.102 117.814 262.703 117.814 262.414 117.814 c 262.145 117.814
 l 262.145 117.173 l 262.414 117.173 l 262.633 117.173 263.379 117.189 264.184
 117.443 c 264.184 110.427 l 262.293 110.427 l 262.293 109.786 l 267.699
 109.786 l 267.699 110.427 l 265.797 110.427 l h
265.797 118.247 m f*
283.137 118.138 m 283.145 118.157 l 283.148 118.181 l 283.156 118.2 l 283.172
 118.232 l 283.176 118.247 l 283.184 118.263 l 283.191 118.275 l 283.199
 118.29 l 283.215 118.314 l 283.234 118.333 l 283.246 118.341 l 283.254 
118.353 l 283.266 118.357 l 283.281 118.364 l 283.293 118.372 l 283.309 
118.38 l 283.324 118.384 l 283.344 118.392 l 283.383 118.4 l 283.406 118.407
 l 283.43 118.407 l 283.453 118.415 l 283.469 118.415 l 283.48 118.419 l
 283.496 118.419 l 283.512 118.423 l 283.527 118.423 l 283.543 118.427 l
 283.578 118.427 l 283.598 118.431 l 283.613 118.435 l 283.652 118.435 l
 283.922 118.462 284.207 118.462 284.426 118.462 c 284.426 119.103 l 281.125
 119.103 l 281.125 118.462 l 281.465 118.462 282.117 118.462 282.512 118.314
 c 280.176 112.247 l 277.773 118.462 l 279.074 118.462 l 279.074 119.103
 l 274.625 119.103 l 274.625 118.462 l 275.789 118.462 l 276.348 117.025
 l 274.5 112.247 l 272.098 118.462 l 273.402 118.462 l 273.402 119.103 l
 268.949 119.103 l 268.949 118.462 l 270.117 118.462 l 273.371 110.032 l
 273.453 109.814 273.508 109.681 273.848 109.681 c 274.188 109.681 274.242
 109.814 274.324 110.032 c 276.688 116.142 l 279.051 110.032 l 279.129 109.814
 279.184 109.681 279.523 109.681 c 279.863 109.681 279.918 109.814 280 110.032
 c h
283.137 118.138 m f*
289.504 118.911 m 289.488 118.943 l 289.484 118.958 l 289.477 118.974 l
 289.445 119.029 l 289.43 119.052 l 289.418 119.075 l 289.371 119.134 l 
289.359 119.15 l 289.34 119.165 l 289.324 119.177 l 289.312 119.193 l 289.297
 119.2 l 289.277 119.212 l 289.246 119.228 l 289.227 119.236 l 289.211 119.239
 l 289.195 119.247 l 289.156 119.255 l 289.141 119.255 l 289.102 119.263
 l 289.082 119.263 l 289.062 119.267 l 288.961 119.267 l 288.578 119.267
 288.523 119.157 288.43 118.911 c 285.062 110.739 l 284.98 110.536 284.941
 110.427 283.91 110.427 c 283.625 110.427 l 283.625 109.786 l 287.004 109.786
 l 287.004 110.427 l 286.98 110.427 285.797 110.427 285.797 110.603 c 285.797
 110.618 285.836 110.751 285.852 110.767 c 286.527 112.407 l 286.801 113.048
 l 288.348 116.822 l 289.895 113.048 l 286.801 113.048 l 286.527 112.407
 l 290.168 112.407 l 290.984 110.427 l 289.691 110.427 l 289.691 109.786
 l 294.297 109.786 l 294.297 110.427 l 292.977 110.427 l h
289.504 118.911 m f*
0.631872 w
0 J
0 j
[] 0.0 d
4 M q 1 0 0 -1 0 332.40744 cm
136.523 213.199 m 207.129 179.836 l S Q
199.824 152.22 m 207.883 152.939 l 202.211 147.169 l 202.602 149.181 201.633
 151.216 199.824 152.22 c h
199.824 152.22 m f*
0.392767 w
1 j
q -1 -0.472547 -0.472547 1 0 332.40744 cm
-93.744 -224.486 m -100.609 -227.011 l -93.744 -229.537 l -94.84 -228.043
 -94.835 -226.005 -93.744 -224.486 c h
-93.744 -224.486 m S Q
233.629 262.716 m 233.473 263.818 l 233.473 271.724 l 237.078 271.724 l
 241.086 271.724 241.086 269.693 241.086 267.771 c 241.086 265.872 241.086
 263.818 237.051 263.818 c 233.473 263.818 l 233.629 262.716 l 238.359 262.716
 l 242.078 262.716 245.176 264.642 245.176 267.771 c 245.176 270.712 242.531
 272.982 238.094 272.982 c 226.949 272.982 l 226.949 271.724 l 229.836 271.724
 l 229.836 255.904 l 226.949 255.904 l 226.949 254.646 l 236.52 254.646 
l 236.52 255.904 l 233.629 255.904 l h
233.629 262.716 m f*
260.246 260.474 m 260.242 260.806 l 260.219 261.134 l 260.184 261.454 l
 260.133 261.771 l 260.07 262.079 l 259.988 262.384 l 259.898 262.681 l 
259.797 262.962 l 259.676 263.247 l 259.543 263.517 l 259.398 263.779 l 
259.238 264.036 l 259.066 264.279 l 258.879 264.513 l 258.684 264.739 l 
258.469 264.958 l 258.25 265.165 l 258.008 265.357 l 257.762 265.54 l 257.5
 265.712 l 257.227 265.872 l 256.941 266.021 l 256.641 266.157 l 256.336
 266.279 l 256.012 266.388 l 255.676 266.482 l 255.332 266.564 l 254.973
 266.634 l 254.605 266.689 l 254.227 266.724 l 253.836 266.747 l 253.434
 266.755 l 253.434 265.79 l 254.555 265.79 255.676 265.368 256.266 264.427
 c 256.824 263.521 256.824 262.052 256.824 260.771 c 256.824 258.439 256.824
 255.56 253.434 255.56 c 250.035 255.56 250.035 258.439 250.035 260.771 
c 250.035 261.97 250.035 263.333 250.492 264.239 c 250.996 265.232 252.125
 265.79 253.434 265.79 c 253.434 266.755 l 249.047 266.755 246.613 264.025
 246.613 260.474 c 246.613 257.157 248.969 254.486 253.434 254.486 c 257.918
 254.486 260.246 257.185 260.246 260.474 c h
260.246 260.474 m f*
267.309 273.197 m 262.574 272.982 l 262.574 271.724 l 264.234 271.724 264.422
 271.724 264.422 270.685 c 264.422 255.904 l 262.574 255.904 l 262.574 254.646
 l 269.148 254.646 l 269.148 255.904 l 267.309 255.904 l h
267.309 273.197 m f*
283.43 264.697 m 283.465 264.767 l 283.496 264.825 l 283.516 264.857 l 
283.531 264.888 l 283.555 264.915 l 283.574 264.943 l 283.625 264.993 l 
283.656 265.017 l 283.684 265.04 l 283.719 265.06 l 283.758 265.079 l 283.801
 265.099 l 283.844 265.114 l 283.898 265.138 l 283.953 265.154 l 284.012
 265.165 l 284.082 265.181 l 284.148 265.189 l 284.188 265.197 l 284.227
 265.2 l 284.27 265.208 l 284.355 265.216 l 284.402 265.224 l 284.449 265.228
 l 284.5 265.232 l 284.551 265.232 l 284.605 265.239 l 284.66 265.243 l 
284.719 265.243 l 284.777 265.247 l 284.902 265.247 l 284.965 265.255 l 
285.176 265.255 l 285.25 265.259 l 285.406 265.259 l 285.406 266.517 l 280.859
 266.517 l 280.859 265.259 l 280.914 265.259 282.121 265.259 282.121 264.939
 c 282.121 264.911 282.016 264.642 281.988 264.614 c 278.906 258.044 l 275.516
 265.259 l 276.961 265.259 l 276.961 266.517 l 270.602 266.517 l 270.602
 265.259 l 272.309 265.259 l 277.309 254.646 l 276.691 253.364 l 276.105
 252.083 275.25 250.263 273.355 250.263 c 272.98 250.263 272.926 250.29 
272.711 250.372 c 272.953 250.478 273.562 250.853 273.562 251.786 c 273.562
 252.665 272.926 253.31 272.012 253.31 c 271.266 253.31 270.496 252.802 
270.496 251.759 c 270.496 250.396 271.75 249.302 273.355 249.302 c 275.41
 249.302 276.961 250.954 277.684 252.478 c h
283.43 264.697 m f*
314.574 271.087 m 314.59 271.126 l 314.598 271.169 l 314.617 271.204 l 
314.625 271.236 l 314.641 271.271 l 314.652 271.302 l 314.684 271.357 l 
314.695 271.38 l 314.711 271.404 l 314.727 271.431 l 314.742 271.447 l 314.766
 271.466 l 314.785 271.486 l 314.809 271.505 l 314.828 271.517 l 314.883
 271.548 l 314.91 271.56 l 314.941 271.572 l 314.98 271.579 l 315.02 271.591
 l 315.105 271.614 l 315.125 271.614 l 315.152 271.618 l 315.172 271.622
 l 315.199 271.63 l 315.227 271.63 l 315.254 271.634 l 315.285 271.638 l
 315.312 271.646 l 315.344 271.646 l 315.379 271.65 l 315.41 271.657 l 315.441
 271.657 l 315.48 271.661 l 315.512 271.665 l 315.551 271.665 l 315.594 
271.673 l 316.125 271.724 316.68 271.724 317.109 271.724 c 317.109 272.982
 l 310.617 272.982 l 310.617 271.724 l 311.285 271.724 312.57 271.724 313.344
 271.431 c 308.746 259.486 l 304.012 271.724 l 306.578 271.724 l 306.578
 272.982 l 297.816 272.982 l 297.816 271.724 l 300.113 271.724 l 301.207
 268.892 l 297.574 259.486 l 292.844 271.724 l 295.406 271.724 l 295.406
 272.982 l 286.645 272.982 l 286.645 271.724 l 288.941 271.724 l 295.352
 255.13 l 295.516 254.7 295.621 254.431 296.293 254.431 c 296.957 254.431
 297.066 254.7 297.227 255.13 c 301.879 267.154 l 306.531 255.13 l 306.684
 254.7 306.793 254.431 307.465 254.431 c 308.133 254.431 308.242 254.7 308.398
 255.13 c h
314.574 271.087 m f*
327.105 272.607 m 327.094 272.638 l 327.078 272.669 l 327.07 272.7 l 327.051
 272.728 l 327.027 272.782 l 326.992 272.837 l 326.965 272.884 l 326.941
 272.927 l 326.906 272.97 l 326.883 273.009 l 326.848 273.044 l 326.82 273.079
 l 326.789 273.103 l 326.758 273.13 l 326.73 273.157 l 326.699 273.181 l
 326.668 273.2 l 326.633 273.216 l 326.602 273.232 l 326.562 273.243 l 326.5
 273.267 l 326.461 273.275 l 326.426 273.282 l 326.395 273.286 l 326.355
 273.29 l 326.316 273.298 l 326.281 273.298 l 326.242 273.302 l 326.039 
273.302 l 325.289 273.302 325.18 273.087 324.996 272.607 c 318.367 256.521
 l 318.203 256.118 318.129 255.904 316.098 255.904 c 315.531 255.904 l 315.531
 254.646 l 322.191 254.646 l 322.191 255.904 l 322.137 255.904 319.809 255.904
 319.809 256.251 c 319.809 256.279 319.891 256.548 319.918 256.572 c 321.254
 259.802 l 321.789 261.064 l 324.836 268.489 l 327.879 261.064 l 321.789
 261.064 l 321.254 259.802 l 328.414 259.802 l 330.02 255.904 l 327.48 255.904
 l 327.48 254.646 l 336.543 254.646 l 336.543 255.904 l 333.949 255.904 
l h
327.105 272.607 m f*
360.598 317.536 m 360.617 317.583 l 360.633 317.638 l 360.652 317.689 l
 360.668 317.728 l 360.688 317.771 l 360.699 317.81 l 360.723 317.845 l 
360.742 317.876 l 360.754 317.911 l 360.777 317.939 l 360.797 317.974 l 
360.844 318.021 l 360.871 318.04 l 360.898 318.068 l 360.926 318.083 l 360.961
 318.103 l 360.992 318.122 l 361.027 318.138 l 361.07 318.15 l 361.117 318.165
 l 361.164 318.177 l 361.219 318.193 l 361.273 318.204 l 361.301 318.204
 l 361.336 318.212 l 361.363 318.22 l 361.398 318.228 l 361.43 318.228 l
 361.465 318.232 l 361.504 318.239 l 361.539 318.247 l 361.582 318.247 l
 361.621 318.255 l 361.664 318.259 l 361.703 318.259 l 361.75 318.267 l 
361.793 318.275 l 361.84 318.275 l 361.887 318.282 l 362.57 318.349 363.281
 318.349 363.824 318.349 c 363.824 319.947 l 355.57 319.947 l 355.57 318.349
 l 356.414 318.349 358.055 318.349 359.035 317.974 c 353.188 302.782 l 347.168
 318.349 l 350.438 318.349 l 350.438 319.947 l 339.285 319.947 l 339.285
 318.349 l 342.207 318.349 l 343.598 314.747 l 338.98 302.782 l 332.961 
318.349 l 336.23 318.349 l 336.23 319.947 l 325.078 319.947 l 325.078 318.349
 l 328 318.349 l 336.156 297.243 l 336.359 296.697 336.496 296.357 337.348
 296.357 c 338.195 296.357 338.332 296.697 338.535 297.243 c 344.453 312.536
 l 350.367 297.243 l 350.566 296.697 350.703 296.357 351.555 296.357 c 352.41
 296.357 352.547 296.697 352.742 297.243 c h
360.598 317.536 m f*
375.855 319.47 m 375.844 319.509 l 375.824 319.548 l 375.809 319.591 l 
375.789 319.626 l 375.754 319.693 l 375.715 319.763 l 375.68 319.822 l 375.645
 319.876 l 375.605 319.931 l 375.57 319.982 l 375.527 320.029 l 375.496 
320.068 l 375.453 320.103 l 375.414 320.138 l 375.379 320.169 l 375.34 320.197
 l 375.297 320.224 l 375.258 320.247 l 375.215 320.267 l 375.168 320.279
 l 375.125 320.294 l 375.086 320.306 l 375.039 320.322 l 374.988 320.329
 l 374.949 320.333 l 374.902 320.341 l 374.852 320.349 l 374.805 320.349
 l 374.758 320.357 l 374.5 320.357 l 373.543 320.357 373.406 320.083 373.176
 319.47 c 364.742 299.009 l 364.535 298.497 364.441 298.224 361.855 298.224
 c 361.137 298.224 l 361.137 296.63 l 369.605 296.63 l 369.605 298.224 l
 369.539 298.224 366.574 298.224 366.574 298.669 c 366.574 298.704 366.68
 299.044 366.711 299.079 c 368.41 303.185 l 369.094 304.79 l 372.969 314.236
 l 376.84 304.79 l 369.094 304.79 l 368.41 303.185 l 377.523 303.185 l 379.562
 298.224 l 376.336 298.224 l 376.336 296.63 l 387.859 296.63 l 387.859 298.224
 l 384.559 298.224 l h
375.855 319.47 m f*
0.631872 w
0 j
q 1 0 0 -1 0 332.40744 cm
137.625 291.238 m 208.23 257.875 l S Q
200.926 74.181 m 208.984 74.904 l 203.312 69.134 l 203.703 71.142 202.734
 73.177 200.926 74.181 c h
200.926 74.181 m f*
0.392767 w
1 j
q -1 -0.472547 -0.472547 1 0 332.40744 cm
-64.499 -288.705 m -71.366 -291.228 l -64.5 -293.753 l -65.595 -292.263
 -65.59 -290.225 -64.499 -288.705 c h
-64.499 -288.705 m S Q
0.631872 w
0 j
q 1 0 0 -1 0 332.40744 cm
136.414 85.57 m 207.02 52.207 l S Q
199.711 279.849 m 207.773 280.568 l 202.098 274.798 l 202.492 276.81 201.523
 278.845 199.711 279.849 c h
199.711 279.849 m f*
0.392767 w
1 j
q -1 -0.472547 -0.472547 1 0 332.40744 cm
-142.953 -120.111 m -149.821 -122.638 l -142.953 -125.161 l -144.053 -123.669
 -144.047 -121.631 -142.953 -120.111 c h
-142.953 -120.111 m S Q
105.211 243.329 m 97.758 243.329 l 97.758 242.907 l 98.086 242.907 l 99.133
 242.907 99.156 242.759 99.156 242.271 c 99.156 235.157 l 99.156 234.665
 99.133 234.517 98.086 234.517 c 97.758 234.517 l 97.758 234.095 l 102.105
 234.095 l 102.105 234.517 l 101.656 234.517 l 100.367 234.517 100.367 234.693
 100.367 235.169 c 100.367 238.509 l 101.531 238.509 l 102.836 238.509 102.973
 238.072 102.973 236.919 c 103.312 236.919 l 103.312 240.517 l 102.973 240.517
 l 102.973 239.38 102.836 238.927 101.531 238.927 c 100.367 238.927 l 100.367
 242.364 l 100.367 242.814 100.395 242.907 101.031 242.907 c 102.656 242.907
 l 104.695 242.907 105.035 242.146 105.254 240.271 c 105.594 240.271 l h
105.211 243.329 m f*
108.438 240.099 m 106.535 239.947 l 106.535 239.529 l 107.418 239.529 107.539
 239.443 107.539 238.779 c 107.539 235.13 l 107.539 234.517 107.391 234.517
 106.48 234.517 c 106.48 234.095 l 109.383 234.095 l 109.383 234.517 l 108.492
 234.517 108.438 234.583 108.438 235.114 c h
108.438 240.099 m f*
108.492 242.458 m 108.488 242.497 l 108.484 242.54 l 108.48 242.579 l 108.473
 242.614 l 108.465 242.654 l 108.457 242.689 l 108.445 242.724 l 108.383
 242.849 l 108.363 242.876 l 108.34 242.904 l 108.32 242.931 l 108.297 242.958
 l 108.273 242.982 l 108.246 243.005 l 108.223 243.025 l 108.195 243.048
 l 108.164 243.068 l 108.137 243.083 l 108.043 243.13 l 108.012 243.138 
l 107.977 243.15 l 107.941 243.157 l 107.91 243.165 l 107.875 243.173 l 
107.84 243.177 l 107.77 243.177 l 107.348 243.177 107.047 242.814 107.047
 242.458 c 107.047 242.095 107.348 241.739 107.77 241.739 c 108.148 241.739
 108.492 242.025 108.492 242.458 c h
108.492 242.458 m f*
112.184 239.216 m 112.184 243.517 l 110.227 243.368 l 110.227 242.95 l 
111.18 242.95 111.285 242.853 111.285 242.189 c 111.285 234.095 l 111.629
 234.095 l 111.641 234.111 111.746 234.302 112.117 234.939 c 112.32 234.626
 112.891 233.947 113.895 233.947 c 113.84 234.247 l 113.227 234.247 112.738
 234.572 112.414 235.075 c 112.227 235.357 112.227 235.4 112.227 235.646
 c 112.227 238.443 l 112.227 238.7 112.227 238.712 112.375 238.927 c 112.902
 239.689 113.648 239.798 113.977 239.798 c 114.586 239.798 115.074 239.443
 115.402 238.927 c 115.754 238.372 115.797 237.599 115.797 237.044 c 115.797
 236.536 115.77 235.728 115.371 235.114 c 115.09 234.693 114.574 234.247
 113.84 234.247 c 113.895 233.947 l 115.508 233.947 116.922 235.275 116.922
 237.029 c 116.922 238.755 115.59 240.099 114.043 240.099 c 112.984 240.099
 112.398 239.458 112.184 239.216 c h
112.184 239.216 m f*
124.145 237.001 m 124.145 237.161 l 124.129 237.322 l 124.109 237.482 l
 124.086 237.638 l 124.051 237.79 l 124.012 237.939 l 123.965 238.087 l 
123.91 238.232 l 123.848 238.372 l 123.781 238.509 l 123.711 238.642 l 123.633
 238.771 l 123.547 238.896 l 123.457 239.017 l 123.363 239.13 l 123.262 
239.243 l 123.156 239.349 l 123.047 239.447 l 122.938 239.54 l 122.816 239.63
 l 122.695 239.712 l 122.57 239.794 l 122.441 239.864 l 122.309 239.927 
l 122.035 240.036 l 121.891 240.079 l 121.746 240.114 l 121.602 240.142 
l 121.449 240.161 l 121.297 240.173 l 121.145 240.181 l 121.133 239.88 l
 121.73 239.88 122.316 239.579 122.668 238.997 c 123.02 238.415 123.02 237.626
 123.02 237.111 c 123.02 236.622 123.02 235.888 122.723 235.29 c 122.422
 234.681 121.828 234.286 121.145 234.286 c 120.562 234.286 119.965 234.572
 119.598 235.197 c 119.258 235.794 119.258 236.622 119.258 237.111 c 119.258
 237.638 119.258 238.372 119.586 238.97 c 119.953 239.595 120.59 239.88 
121.133 239.88 c 121.145 240.181 l 119.449 240.181 118.133 238.7 118.133
 237.001 c 118.133 235.247 119.543 233.947 121.133 233.947 c 122.777 233.947
 124.145 235.275 124.145 237.001 c h
124.145 237.001 m f*
126.059 238.767 m 126.059 235.13 l 126.059 234.517 125.91 234.517 125 234.517
 c 125 234.095 l 128.055 234.095 l 128.055 234.517 l 127.148 234.517 126.996
 234.517 126.996 235.13 c 126.996 237.626 l 126.996 239.036 127.961 239.798
 128.828 239.798 c 129.684 239.798 129.836 239.064 129.836 238.29 c 129.836
 235.13 l 129.836 234.517 129.684 234.517 128.773 234.517 c 128.773 234.095
 l 131.828 234.095 l 131.828 234.517 l 131.125 234.517 130.781 234.517 130.773
 234.923 c 130.773 237.517 l 130.773 238.685 130.773 239.107 130.352 239.595
 c 130.16 239.825 129.711 240.099 128.926 240.099 c 127.934 240.099 127.293
 239.513 126.914 238.673 c 126.914 240.099 l 125 239.947 l 125 239.529 l
 125.949 239.529 126.059 239.431 126.059 238.767 c h
126.059 238.767 m f*
136.719 235.13 m 136.727 235.075 l 136.742 234.974 l 136.766 234.872 l 
136.781 234.825 l 136.797 234.775 l 136.816 234.724 l 136.836 234.677 l 
136.859 234.626 l 136.883 234.583 l 136.938 234.489 l 136.965 234.45 l 136.996
 234.407 l 137.031 234.368 l 137.062 234.329 l 137.137 234.255 l 137.176
 234.224 l 137.219 234.193 l 137.258 234.165 l 137.352 234.111 l 137.445
 234.072 l 137.5 234.052 l 137.551 234.04 l 137.605 234.029 l 137.664 234.021
 l 137.719 234.017 l 137.777 234.013 l 138.062 234.013 138.891 234.204 138.891
 235.302 c 138.891 236.064 l 138.551 236.064 l 138.551 235.302 l 138.551
 234.517 138.215 234.439 138.062 234.439 c 137.617 234.439 137.562 235.048
 137.562 235.114 c 137.562 237.829 l 137.562 238.4 137.562 238.927 137.07
 239.431 c 136.543 239.962 135.863 240.181 135.211 240.181 c 134.098 240.181
 133.16 239.54 133.16 238.646 c 133.16 238.236 133.434 238.009 133.785 238.009
 c 134.164 238.009 134.41 238.279 134.41 238.63 c 134.41 238.794 134.344
 239.243 133.719 239.255 c 134.086 239.732 134.75 239.88 135.184 239.88 
c 135.852 239.88 136.625 239.353 136.625 238.142 c 136.625 235.997 l 136.625
 234.708 135.645 234.247 135.035 234.247 c 134.371 234.247 133.812 234.72
 133.812 235.4 c 133.812 236.146 134.383 237.275 136.625 237.357 c 136.625
 237.638 l 135.934 237.599 134.98 237.556 134.125 237.15 c 133.109 236.693
 132.766 235.986 132.766 235.384 c 132.766 234.286 134.086 233.947 134.941
 233.947 c 135.836 233.947 136.461 234.489 136.719 235.13 c h
136.719 235.13 m f*
140.602 237.056 m 140.602 237.259 l 140.605 237.357 l 140.629 237.638 l
 140.641 237.724 l 140.648 237.81 l 140.664 237.896 l 140.676 237.978 l 
140.707 238.134 l 140.746 238.282 l 140.785 238.423 l 140.828 238.56 l 140.883
 238.685 l 140.934 238.802 l 140.992 238.911 l 141.051 239.009 l 141.113
 239.107 l 141.18 239.197 l 141.246 239.279 l 141.316 239.353 l 141.387 
239.423 l 141.461 239.486 l 141.539 239.54 l 141.613 239.595 l 141.688 239.642
 l 141.766 239.681 l 141.844 239.716 l 141.918 239.747 l 142.074 239.794
 l 142.148 239.81 l 142.223 239.822 l 142.363 239.837 l 142.434 239.837 
l 142.555 239.837 143.41 239.825 143.887 239.337 c 143.328 239.298 143.246
 238.892 143.246 238.712 c 143.246 238.361 143.492 238.087 143.871 238.087
 c 144.227 238.087 144.496 238.318 144.496 238.724 c 144.496 239.65 143.465
 240.181 142.418 240.181 c 140.723 240.181 139.477 238.712 139.477 237.029
 c 139.477 235.29 140.816 233.947 142.391 233.947 c 144.211 233.947 144.645
 235.575 144.645 235.712 c 144.645 235.849 144.512 235.849 144.469 235.849
 c 144.348 235.849 144.32 235.794 144.293 235.712 c 143.898 234.45 143.02
 234.286 142.516 234.286 c 141.793 234.286 140.602 234.868 140.602 237.056
 c h
140.602 237.056 m f*
146.598 237.056 m 146.598 237.161 l 146.602 237.259 l 146.602 237.357 l
 146.625 237.638 l 146.637 237.724 l 146.645 237.81 l 146.66 237.896 l 146.672
 237.978 l 146.703 238.134 l 146.742 238.282 l 146.781 238.423 l 146.824
 238.56 l 146.879 238.685 l 146.93 238.802 l 146.988 238.911 l 147.047 239.009
 l 147.109 239.107 l 147.176 239.197 l 147.242 239.279 l 147.312 239.353
 l 147.383 239.423 l 147.457 239.486 l 147.535 239.54 l 147.609 239.595 
l 147.684 239.642 l 147.762 239.681 l 147.84 239.716 l 147.918 239.747 l
 147.992 239.771 l 148.07 239.794 l 148.145 239.81 l 148.219 239.822 l 148.359
 239.837 l 148.43 239.837 l 148.551 239.837 149.406 239.825 149.883 239.337
 c 149.324 239.298 149.242 238.892 149.242 238.712 c 149.242 238.361 149.488
 238.087 149.867 238.087 c 150.223 238.087 150.492 238.318 150.492 238.724
 c 150.492 239.65 149.461 240.181 148.414 240.181 c 146.719 240.181 145.473
 238.712 145.473 237.029 c 145.473 235.29 146.812 233.947 148.387 233.947
 c 150.207 233.947 150.641 235.575 150.641 235.712 c 150.641 235.849 150.508
 235.849 150.465 235.849 c 150.344 235.849 150.316 235.794 150.289 235.712
 c 149.895 234.45 149.016 234.286 148.512 234.286 c 147.789 234.286 146.598
 234.868 146.598 237.056 c h
146.598 237.056 m f*
153.41 240.099 m 151.504 239.947 l 151.504 239.529 l 152.391 239.529 152.512
 239.443 152.512 238.779 c 152.512 235.13 l 152.512 234.517 152.363 234.517
 151.453 234.517 c 151.453 234.095 l 154.355 234.095 l 154.355 234.517 l
 153.461 234.517 153.41 234.583 153.41 235.114 c h
153.41 240.099 m f*
153.461 242.458 m 153.461 242.497 l 153.457 242.54 l 153.453 242.579 l 
153.445 242.614 l 153.438 242.654 l 153.426 242.689 l 153.418 242.724 l 
153.355 242.849 l 153.336 242.876 l 153.312 242.904 l 153.293 242.931 l 
153.27 242.958 l 153.246 242.982 l 153.219 243.005 l 153.191 243.025 l 153.164
 243.048 l 153.137 243.068 l 153.109 243.083 l 153.016 243.13 l 152.984 
243.138 l 152.949 243.15 l 152.914 243.157 l 152.883 243.165 l 152.848 243.173
 l 152.812 243.177 l 152.742 243.177 l 152.32 243.177 152.02 242.814 152.02
 242.458 c 152.02 242.095 152.32 241.739 152.742 241.739 c 153.121 241.739
 153.461 242.025 153.461 242.458 c h
153.461 242.458 m f*
29.691 112.822 m 29.691 113.013 l 29.688 113.021 l 29.688 113.029 l 29.684
 113.048 l 29.684 113.06 l 29.676 113.075 l 29.664 113.111 l 29.645 113.13
 l 29.637 113.134 l 29.629 113.142 l 29.617 113.146 l 29.605 113.154 l 29.602
 113.157 l 29.586 113.157 l 29.57 113.165 l 29.547 113.165 l 29.539 113.169
 l 29.508 113.169 l 29.496 113.173 l 29.383 113.173 l 28.539 112.306 27.348
 112.306 26.91 112.306 c 26.91 111.884 l 27.184 111.884 27.984 111.884 28.691
 112.236 c 28.691 105.204 l 28.691 104.716 28.648 104.552 27.426 104.552
 c 26.992 104.552 l 26.992 104.13 l 31.391 104.13 l 31.391 104.552 l 30.957
 104.552 l 29.734 104.552 29.691 104.7 29.691 105.204 c h
29.691 112.822 m f*
33.402 109.638 m 33.398 109.622 l 33.398 109.611 l 33.391 109.599 l 33.387
 109.583 l 33.383 109.572 l 33.375 109.54 l 33.371 109.529 l 33.363 109.493
 l 33.355 109.466 l 33.348 109.435 l 33.344 109.404 l 33.336 109.392 l 33.336
 109.376 l 33.332 109.361 l 33.324 109.337 l 33.324 109.322 l 33.32 109.314
 l 33.316 109.302 l 33.316 109.282 l 33.312 109.275 l 33.312 109.267 l 33.309
 109.259 l 33.309 109.247 l 33.309 109.036 33.48 108.943 33.633 108.943 
c 33.805 108.943 33.957 109.068 34 109.154 c 34.047 109.236 34.125 109.54
 34.172 109.739 c 34.219 109.919 34.328 110.361 34.379 110.595 c 34.438 
110.802 34.496 111.013 34.543 111.232 c 34.648 111.622 34.668 111.697 34.941
 112.087 c 35.211 112.47 35.656 112.962 36.367 112.962 c 36.922 112.962 
36.93 112.478 36.93 112.298 c 36.93 111.728 36.52 110.673 36.367 110.271
 c 36.266 110.009 36.227 109.919 36.227 109.759 c 36.227 109.255 36.645 
108.943 37.129 108.943 c 38.078 108.943 38.5 110.251 38.5 110.396 c 38.5
 110.521 38.375 110.521 38.348 110.521 c 38.211 110.521 38.203 110.462 38.164
 110.361 c 37.945 109.599 37.535 109.208 37.156 109.208 c 36.961 109.208
 36.922 109.341 36.922 109.54 c 36.922 109.759 36.969 109.884 37.141 110.31
 c 37.254 110.603 37.641 111.614 37.641 112.146 c 37.641 113.068 36.91 113.228
 36.406 113.228 c 35.617 113.228 35.086 112.743 34.801 112.361 c 34.734 
113.021 34.172 113.228 33.785 113.228 c 33.375 113.228 33.156 112.935 33.031
 112.716 c 32.824 112.361 32.691 111.822 32.691 111.775 c 32.691 111.65 
32.824 111.65 32.852 111.65 c 32.984 111.65 32.992 111.681 33.062 111.939
 c 33.203 112.497 33.383 112.962 33.754 112.962 c 34 112.962 34.07 112.751
 34.07 112.497 c 34.07 112.318 33.984 111.966 33.918 111.708 c 33.848 111.45
 33.754 111.064 33.707 110.853 c h
33.402 109.638 m f*
48.43 107.255 m 52.215 107.255 l 52.406 107.255 52.66 107.255 52.66 107.525
 c 52.66 107.798 52.406 107.798 52.215 107.798 c 48.43 107.798 l 48.43 111.599
 l 48.43 111.786 48.43 112.048 48.156 112.048 c 47.883 112.048 47.883 111.786
 47.883 111.599 c 47.883 107.798 l 44.082 107.798 l 43.891 107.798 43.633
 107.798 43.633 107.525 c 43.633 107.255 43.891 107.255 44.082 107.255 c
 47.883 107.255 l 47.883 103.454 l 47.883 103.263 47.883 103.005 48.156 
103.005 c 48.43 103.005 48.43 103.263 48.43 103.454 c h
48.43 107.255 m f*
57.953 105.177 m 59.391 106.572 l 61.512 108.45 62.324 109.181 62.324 110.54
 c 62.324 112.087 61.102 113.173 59.445 113.173 c 57.914 113.173 56.906 
111.923 56.906 110.716 c 56.906 109.954 57.586 109.954 57.629 109.954 c 
57.859 109.954 58.332 110.118 58.332 110.677 c 58.332 111.029 58.086 111.38
 57.613 111.38 c 57.504 111.38 57.477 111.38 57.438 111.368 c 57.75 112.251
 58.484 112.751 59.27 112.751 c 60.504 112.751 61.09 111.654 61.09 110.54
 c 61.09 109.454 60.41 108.38 59.664 107.536 c 57.059 104.634 l 56.906 104.486
 56.906 104.458 56.906 104.13 c 61.945 104.13 l 62.324 106.493 l 61.984 
106.493 l 61.918 106.087 61.82 105.489 61.688 105.282 c 61.594 105.177 60.695
 105.177 60.395 105.177 c h
57.953 105.177 m f*
64.203 109.638 m 64.199 109.622 l 64.191 109.599 l 64.188 109.583 l 64.184
 109.572 l 64.176 109.54 l 64.172 109.529 l 64.164 109.493 l 64.156 109.466
 l 64.141 109.404 l 64.137 109.392 l 64.129 109.361 l 64.129 109.349 l 64.125
 109.337 l 64.121 109.322 l 64.121 109.314 l 64.113 109.29 l 64.113 109.267
 l 64.109 109.259 l 64.109 109.247 l 64.109 109.036 64.277 108.943 64.43
 108.943 c 64.602 108.943 64.754 109.068 64.801 109.154 c 64.848 109.236
 64.922 109.54 64.973 109.739 c 65.02 109.919 65.125 110.361 65.18 110.595
 c 65.238 110.802 65.297 111.013 65.344 111.232 c 65.445 111.622 65.465 
111.697 65.742 112.087 c 66.008 112.47 66.457 112.962 67.168 112.962 c 67.719
 112.962 67.727 112.478 67.727 112.298 c 67.727 111.728 67.32 110.673 67.168
 110.271 c 67.062 110.009 67.023 109.919 67.023 109.759 c 67.023 109.255
 67.445 108.943 67.926 108.943 c 68.879 108.943 69.297 110.251 69.297 110.396
 c 69.297 110.521 69.172 110.521 69.145 110.521 c 69.012 110.521 69 110.462
 68.965 110.361 c 68.746 109.599 68.336 109.208 67.957 109.208 c 67.758 
109.208 67.719 109.341 67.719 109.54 c 67.719 109.759 67.766 109.884 67.938
 110.31 c 68.051 110.603 68.441 111.614 68.441 112.146 c 68.441 113.068 
67.711 113.228 67.203 113.228 c 66.418 113.228 65.887 112.743 65.598 112.361
 c 65.535 113.021 64.973 113.228 64.582 113.228 c 64.176 113.228 63.957 
112.935 63.832 112.716 c 63.625 112.361 63.488 111.822 63.488 111.775 c 
63.488 111.65 63.625 111.65 63.652 111.65 c 63.785 111.65 63.793 111.681
 63.859 111.939 c 64.004 112.497 64.184 112.962 64.555 112.962 c 64.801 
112.962 64.867 112.751 64.867 112.497 c 64.867 112.318 64.781 111.966 64.715
 111.708 c 64.652 111.45 64.555 111.064 64.508 110.853 c h
64.203 109.638 m f*
79.227 107.255 m 83.012 107.255 l 83.203 107.255 83.461 107.255 83.461 
107.525 c 83.461 107.798 83.203 107.798 83.012 107.798 c 79.227 107.798 
l 79.227 111.599 l 79.227 111.786 79.227 112.048 78.953 112.048 c 78.684
 112.048 78.684 111.786 78.684 111.599 c 78.684 107.798 l 74.879 107.798
 l 74.688 107.798 74.434 107.798 74.434 107.525 c 74.434 107.255 74.688 
107.255 74.879 107.255 c 78.684 107.255 l 78.684 103.454 l 78.684 103.263
 78.684 103.005 78.953 103.005 c 79.227 103.005 79.227 103.263 79.227 103.454
 c h
79.227 107.255 m f*
89.633 107.525 m 89.633 107.599 l 89.625 107.634 l 89.621 107.669 l 89.613
 107.704 l 89.602 107.736 l 89.578 107.806 l 89.531 107.9 l 89.512 107.927
 l 89.488 107.954 l 89.469 107.982 l 89.445 108.005 l 89.422 108.032 l 89.398
 108.056 l 89.344 108.103 l 89.289 108.142 l 89.195 108.189 l 89.164 108.2
 l 89.125 108.212 l 89.094 108.224 l 89.059 108.232 l 88.953 108.243 l 88.918
 108.243 l 88.523 108.243 88.195 107.919 88.195 107.525 c 88.195 107.134
 88.523 106.806 88.918 106.806 c 89.309 106.806 89.633 107.134 89.633 107.525
 c h
89.633 107.525 m f*
95.629 107.525 m 95.629 107.599 l 95.621 107.634 l 95.617 107.669 l 95.609
 107.704 l 95.598 107.736 l 95.574 107.806 l 95.527 107.9 l 95.508 107.927
 l 95.484 107.954 l 95.465 107.982 l 95.441 108.005 l 95.418 108.032 l 95.395
 108.056 l 95.34 108.103 l 95.285 108.142 l 95.191 108.189 l 95.16 108.2
 l 95.09 108.224 l 95.055 108.232 l 94.949 108.243 l 94.914 108.243 l 94.52
 108.243 94.191 107.919 94.191 107.525 c 94.191 107.134 94.52 106.806 94.914
 106.806 c 95.305 106.806 95.629 107.134 95.629 107.525 c h
95.629 107.525 m f*
101.898 107.525 m 101.898 107.564 l 101.887 107.669 l 101.879 107.704 l
 101.867 107.736 l 101.855 107.771 l 101.84 107.806 l 101.828 107.837 l 
101.797 107.9 l 101.777 107.927 l 101.754 107.954 l 101.734 107.982 l 101.711
 108.005 l 101.688 108.032 l 101.66 108.056 l 101.637 108.079 l 101.609 
108.103 l 101.578 108.122 l 101.551 108.142 l 101.523 108.157 l 101.488 
108.173 l 101.461 108.189 l 101.391 108.212 l 101.359 108.224 l 101.324 
108.232 l 101.219 108.243 l 101.184 108.243 l 100.785 108.243 100.461 107.919
 100.461 107.525 c 100.461 107.134 100.785 106.806 101.184 106.806 c 101.574
 106.806 101.898 107.134 101.898 107.525 c h
101.898 107.525 m f*
111.66 107.255 m 115.449 107.255 l 115.637 107.255 115.895 107.255 115.895
 107.525 c 115.895 107.798 115.637 107.798 115.449 107.798 c 111.66 107.798
 l 111.66 111.599 l 111.66 111.786 111.66 112.048 111.391 112.048 c 111.117
 112.048 111.117 111.786 111.117 111.599 c 111.117 107.798 l 107.316 107.798
 l 107.125 107.798 106.867 107.798 106.867 107.525 c 106.867 107.255 107.125
 107.255 107.316 107.255 c 111.117 107.255 l 111.117 103.454 l 111.117 103.263
 111.117 103.005 111.391 103.005 c 111.66 103.005 111.66 103.263 111.66 
103.454 c h
111.66 107.255 m f*
123.957 100.872 m 123.957 100.888 l 123.953 100.892 l 123.953 100.911 l
 123.949 100.911 l 123.945 100.919 l 123.945 100.923 l 123.938 100.939 l
 123.926 100.95 l 123.918 100.966 l 123.906 100.974 l 123.898 100.986 l 
123.898 100.989 l 123.875 101.013 l 123.871 101.021 l 123.852 101.04 l 123.844
 101.044 l 123.84 101.056 l 123.832 101.064 l 123.828 101.072 l 123.816 
101.079 l 123.734 101.161 l 123.727 101.173 l 122.027 102.884 121.594 105.447
 121.594 107.525 c 121.594 109.888 122.113 112.251 123.781 113.95 c 123.957
 114.111 123.957 114.138 123.957 114.177 c 123.957 114.275 123.902 114.314
 123.82 114.314 c 123.684 114.314 122.465 113.392 121.66 111.665 c 120.969
 110.173 120.805 108.665 120.805 107.525 c 120.805 106.466 120.957 104.825
 121.703 103.29 c 122.52 101.622 123.684 100.739 123.82 100.739 c 123.902
 100.739 123.957 100.779 123.957 100.872 c h
123.957 100.872 m f*
128.812 113.404 m 128.812 113.415 l 128.809 113.419 l 128.809 113.435 l
 128.805 113.439 l 128.805 113.45 l 128.801 113.458 l 128.797 113.462 l 
128.793 113.47 l 128.793 113.478 l 128.789 113.482 l 128.785 113.489 l 128.777
 113.497 l 128.773 113.505 l 128.766 113.513 l 128.758 113.517 l 128.75 
113.525 l 128.746 113.525 l 128.742 113.529 l 128.734 113.532 l 128.73 113.536
 l 128.727 113.536 l 128.723 113.54 l 128.715 113.54 l 128.711 113.544 l
 128.699 113.544 l 128.691 113.548 l 128.688 113.548 l 128.676 113.552 l
 128.633 113.552 l 128.32 113.552 127.332 113.443 126.977 113.419 c 126.867
 113.404 126.719 113.392 126.719 113.146 c 126.719 112.986 126.84 112.986
 127.047 112.986 c 127.695 112.986 127.723 112.888 127.723 112.751 c 127.684
 112.482 l 125.715 104.661 l 125.66 104.474 125.66 104.443 125.66 104.364
 c 125.66 104.048 125.93 103.982 126.055 103.982 c 126.23 103.982 126.434
 104.103 126.516 104.267 c 126.586 104.392 127.195 106.9 127.277 107.239
 c 127.738 107.2 128.852 106.982 128.852 106.087 c 128.852 105.989 128.852
 105.935 128.812 105.802 c 128.785 105.638 128.758 105.474 128.758 105.325
 c 128.758 104.525 129.301 103.982 130.004 103.982 c 130.414 103.982 130.777
 104.2 131.078 104.7 c 131.418 105.302 131.566 106.044 131.566 106.072 c
 131.566 106.208 131.445 106.208 131.402 106.208 c 131.266 106.208 131.254
 106.154 131.211 105.966 c 130.941 104.974 130.629 104.282 130.031 104.282
 c 129.773 104.282 129.598 104.431 129.598 104.919 c 129.598 105.15 129.652
 105.462 129.707 105.681 c 129.762 105.911 129.762 105.966 129.762 106.099
 c 129.762 106.982 128.906 107.376 127.75 107.525 c 128.172 107.771 128.605
 108.204 128.922 108.529 c 129.57 109.251 130.195 109.833 130.859 109.833
 c 130.941 109.833 130.957 109.833 130.984 109.818 c 131.145 109.794 131.156
 109.794 131.266 109.712 c 131.293 109.697 131.293 109.685 131.32 109.657
 c 130.672 109.614 130.547 109.087 130.547 108.927 c 130.547 108.708 130.699
 108.45 131.066 108.45 c 131.418 108.45 131.809 108.747 131.809 109.279 
c 131.809 109.685 131.5 110.134 130.887 110.134 c 130.508 110.134 129.883
 110.025 128.906 108.935 c 128.441 108.423 127.914 107.88 127.398 107.673
 c h
128.812 113.404 m f*
140.824 107.255 m 144.613 107.255 l 144.801 107.255 145.059 107.255 145.059
 107.525 c 145.059 107.798 144.801 107.798 144.613 107.798 c 140.824 107.798
 l 140.824 111.599 l 140.824 111.786 140.824 112.048 140.555 112.048 c 140.281
 112.048 140.281 111.786 140.281 111.599 c 140.281 107.798 l 136.477 107.798
 l 136.289 107.798 136.031 107.798 136.031 107.525 c 136.031 107.255 136.289
 107.255 136.477 107.255 c 140.281 107.255 l 140.281 103.454 l 140.281 103.263
 140.281 103.005 140.555 103.005 c 140.824 103.005 140.824 103.263 140.824
 103.454 c h
140.824 107.255 m f*
152.891 112.822 m 152.891 112.986 l 152.887 112.993 l 152.887 113.013 l
 152.883 113.021 l 152.883 113.048 l 152.879 113.06 l 152.871 113.075 l 
152.871 113.087 l 152.863 113.099 l 152.859 113.111 l 152.852 113.118 l 
152.844 113.13 l 152.836 113.134 l 152.828 113.142 l 152.816 113.146 l 152.801
 113.154 l 152.797 113.157 l 152.781 113.157 l 152.766 113.165 l 152.742
 113.165 l 152.734 113.169 l 152.703 113.169 l 152.691 113.173 l 152.578
 113.173 l 151.734 112.306 150.543 112.306 150.105 112.306 c 150.105 111.884
 l 150.379 111.884 151.18 111.884 151.887 112.236 c 151.887 105.204 l 151.887
 104.716 151.844 104.552 150.625 104.552 c 150.188 104.552 l 150.188 104.13
 l 154.586 104.13 l 154.586 104.552 l 154.152 104.552 l 152.93 104.552 152.891
 104.7 152.891 105.204 c h
152.891 112.822 m f*
159.637 107.525 m 159.637 107.732 l 159.633 107.837 l 159.629 107.95 l 
159.617 108.177 l 159.602 108.419 l 159.578 108.669 l 159.551 108.927 l 
159.512 109.193 l 159.469 109.466 l 159.414 109.743 l 159.352 110.029 l 
159.277 110.314 l 159.195 110.603 l 159.102 110.892 l 158.996 111.181 l 
158.934 111.325 l 158.875 111.474 l 158.742 111.763 l 157.926 113.431 156.758
 114.314 156.625 114.314 c 156.543 114.314 156.488 114.259 156.488 114.177
 c 156.488 114.138 156.488 114.111 156.742 113.864 c 158.074 112.525 158.852
 110.361 158.852 107.525 c 158.852 105.204 158.344 102.814 156.664 101.103
 c 156.488 100.939 156.488 100.915 156.488 100.872 c 156.488 100.794 156.543
 100.739 156.625 100.739 c 156.758 100.739 157.98 101.657 158.781 103.384
 c 159.473 104.876 159.637 106.384 159.637 107.525 c h
159.637 107.525 m f*
162.051 109.638 m 162.047 109.622 l 162.039 109.599 l 162.035 109.583 l
 162.031 109.572 l 162.023 109.54 l 162.02 109.529 l 162.012 109.493 l 162.004
 109.466 l 161.988 109.404 l 161.984 109.392 l 161.98 109.376 l 161.98 109.361
 l 161.973 109.337 l 161.973 109.322 l 161.969 109.314 l 161.961 109.29 
l 161.961 109.267 l 161.957 109.259 l 161.957 109.247 l 161.957 109.036 
162.125 108.943 162.277 108.943 c 162.449 108.943 162.602 109.068 162.648
 109.154 c 162.695 109.236 162.773 109.54 162.82 109.739 c 162.867 109.919
 162.973 110.361 163.027 110.595 c 163.086 110.802 163.145 111.013 163.191
 111.232 c 163.297 111.622 163.312 111.697 163.59 112.087 c 163.855 112.47
 164.305 112.962 165.016 112.962 c 165.57 112.962 165.578 112.478 165.578
 112.298 c 165.578 111.728 165.168 110.673 165.016 110.271 c 164.91 110.009
 164.875 109.919 164.875 109.759 c 164.875 109.255 165.293 108.943 165.777
 108.943 c 166.727 108.943 167.148 110.251 167.148 110.396 c 167.148 110.521
 167.02 110.521 166.992 110.521 c 166.859 110.521 166.848 110.462 166.812
 110.361 c 166.594 109.599 166.184 109.208 165.805 109.208 c 165.605 109.208
 165.57 109.341 165.57 109.54 c 165.57 109.759 165.613 109.884 165.785 110.31
 c 165.902 110.603 166.289 111.614 166.289 112.146 c 166.289 113.068 165.559
 113.228 165.055 113.228 c 164.266 113.228 163.734 112.743 163.449 112.361
 c 163.383 113.021 162.82 113.228 162.43 113.228 c 162.023 113.228 161.805
 112.935 161.684 112.716 c 161.473 112.361 161.34 111.822 161.34 111.775
 c 161.34 111.65 161.473 111.65 161.5 111.65 c 161.633 111.65 161.641 111.681
 161.711 111.939 c 161.852 112.497 162.031 112.962 162.402 112.962 c 162.648
 112.962 162.719 112.751 162.719 112.497 c 162.719 112.318 162.629 111.966
 162.566 111.708 c 162.5 111.45 162.402 111.064 162.355 110.853 c h
162.051 109.638 m f*
0.631872 w
0 j
q 1 0 0 -1 0 332.40744 cm
134.617 143.168 m 205.223 109.805 l S Q
197.918 222.251 m 205.977 222.974 l 200.305 217.204 l 200.699 219.212 199.727
 221.247 197.918 222.251 c h
197.918 222.251 m f*
0.392767 w
1 j
q -1 -0.472547 -0.472547 1 0 332.40744 cm
-119.238 -166.502 m -126.105 -169.024 l -119.24 -171.549 l -120.338 -170.061
 -120.329 -168.021 -119.238 -166.502 c h
-119.238 -166.502 m S Q
118.496 181.388 m 118.488 181.353 l 118.484 181.318 l 118.473 181.282 l
 118.469 181.243 l 118.449 181.169 l 118.43 181.091 l 118.418 181.017 l 
118.398 180.943 l 118.379 180.864 l 118.359 180.79 l 118.355 180.751 l 118.344
 180.716 l 118.336 180.685 l 118.332 180.65 l 118.32 180.618 l 118.316 180.583
 l 118.309 180.529 l 118.301 180.497 l 118.293 180.45 l 118.289 180.431 
l 118.281 180.411 l 118.281 180.368 l 118.281 179.947 118.617 179.728 118.965
 179.728 c 119.254 179.728 119.676 179.915 119.844 180.388 c 119.871 180.443
 120.152 181.548 120.293 182.142 c 120.816 184.275 l 120.953 184.798 121.098
 185.314 121.215 185.864 c 121.312 186.267 121.508 186.95 121.531 187.044
 c 121.887 187.782 123.141 189.935 125.379 189.935 c 126.449 189.935 126.668
 189.06 126.668 188.282 c 126.668 186.806 125.5 183.779 125.125 182.763 
c 124.914 182.22 124.891 181.931 124.891 181.669 c 124.891 180.56 125.719
 179.728 126.832 179.728 c 129.059 179.728 129.934 183.185 129.934 183.376
 c 129.934 183.611 129.723 183.611 129.645 183.611 c 129.418 183.611 129.418
 183.54 129.297 183.185 c 128.824 181.579 128.043 180.251 126.879 180.251
 c 126.473 180.251 126.312 180.489 126.312 181.032 c 126.312 181.626 126.527
 182.197 126.734 182.712 c 127.188 183.97 128.184 186.568 128.184 187.923
 c 128.184 189.513 127.164 190.454 125.457 190.454 c 123.328 190.454 122.168
 188.943 121.77 188.4 c 121.648 189.728 120.676 190.454 119.582 190.454 
c 118.496 190.454 118.047 189.536 117.809 189.114 c 117.426 188.298 117.094
 186.907 117.094 186.806 c 117.094 186.568 117.332 186.568 117.383 186.568
 c 117.621 186.568 117.641 186.603 117.785 187.122 c 118.184 188.798 118.66
 189.935 119.516 189.935 c 119.984 189.935 120.25 189.63 120.25 188.853 
c 120.25 188.353 120.176 188.087 119.871 186.861 c h
118.496 181.388 m f*
8.469 27.228 m 8.504 27.224 l 8.547 27.216 l 8.594 27.208 l 8.645 27.193
 l 8.695 27.181 l 8.754 27.169 l 8.812 27.154 l 8.945 27.114 l 9.012 27.091
 l 9.082 27.068 l 9.152 27.04 l 9.223 27.009 l 9.434 26.904 l 9.504 26.857
 l 9.57 26.814 l 9.637 26.763 l 9.699 26.712 l 9.762 26.654 l 9.82 26.595
 l 9.875 26.529 l 9.926 26.462 l 9.969 26.392 l 9.992 26.353 l 10.012 26.314
 l 10.031 26.271 l 10.047 26.236 l 10.062 26.189 l 10.094 26.103 l 10.102
 26.056 l 10.113 26.009 l 10.121 25.962 l 10.129 25.907 l 10.133 25.861 
l 10.133 25.806 l 10.137 25.755 l 10.137 24.943 9.574 24.302 8.328 24.302
 c 6.984 24.302 6.406 25.212 6.102 26.572 c 6.055 26.779 6.043 26.845 5.883
 26.845 c 5.668 26.845 5.668 26.732 5.668 26.443 c 5.668 24.329 l 5.668 
24.06 5.668 23.947 5.848 23.947 c 5.926 23.947 5.938 23.962 6.246 24.267
 c 6.277 24.302 6.277 24.329 6.57 24.634 c 7.27 23.962 7.992 23.947 8.328
 23.947 c 10.168 23.947 10.906 25.025 10.906 26.169 c 10.906 27.017 10.422
 27.501 10.23 27.693 c 9.703 28.204 9.078 28.333 8.406 28.458 c 7.512 28.638
 6.438 28.845 6.438 29.775 c 6.438 30.333 6.855 30.989 8.23 30.989 c 9.988
 30.989 10.07 29.548 10.102 29.052 c 10.121 28.907 10.262 28.907 10.297 
28.907 c 10.504 28.907 10.504 28.986 10.504 29.29 c 10.504 30.907 l 10.504
 31.181 10.504 31.29 10.328 31.29 c 10.246 31.29 10.219 31.29 10.004 31.099
 c 9.961 31.032 9.801 30.896 9.734 30.845 c 9.129 31.29 8.469 31.29 8.23
 31.29 c 6.277 31.29 5.668 30.22 5.668 29.325 c 5.668 28.767 5.926 28.314
 6.355 27.962 c 6.867 27.548 7.32 27.45 8.469 27.228 c h
8.469 27.228 m f*
13.223 25.337 m 13.223 25.154 l 13.215 25.099 l 13.211 25.052 l 13.203 
25.005 l 13.191 24.962 l 13.184 24.923 l 13.152 24.853 l 13.133 24.825 l
 13.113 24.794 l 13.09 24.771 l 13.062 24.747 l 13.035 24.728 l 13.004 24.712
 l 12.969 24.697 l 12.93 24.681 l 12.844 24.657 l 12.742 24.642 l 12.684
 24.638 l 12.656 24.634 l 12.625 24.63 l 12.59 24.626 l 12.453 24.626 l 
12.414 24.622 l 11.977 24.622 l 11.977 24.122 l 12.535 24.138 13.352 24.173
 13.785 24.173 c 14.199 24.173 15.031 24.138 15.574 24.122 c 15.574 24.622
 l 14.508 24.622 14.328 24.622 14.328 25.337 c 14.328 28.282 l 14.328 29.95
 15.465 30.845 16.488 30.845 c 17.496 30.845 17.672 29.978 17.672 29.068
 c 17.672 25.337 l 17.672 24.622 17.496 24.622 16.422 24.622 c 16.422 24.122
 l 16.984 24.138 17.801 24.173 18.234 24.173 c 18.648 24.173 19.48 24.138
 20.027 24.122 c 20.027 24.622 l 19.191 24.622 18.793 24.622 18.773 25.103
 c 18.773 28.157 l 18.773 29.532 18.773 30.032 18.281 30.603 c 18.059 30.88
 17.527 31.193 16.605 31.193 c 15.258 31.193 14.551 30.236 14.277 29.63 
c 14.277 35.232 l 11.977 35.056 l 11.977 34.556 l 13.098 34.556 13.223 34.447
 13.223 33.661 c h
13.223 25.337 m f*
26.164 25.388 m 26.164 23.947 l 28.465 24.122 l 28.465 24.622 l 27.348 
24.622 27.215 24.732 27.215 25.513 c 27.215 31.193 l 24.863 31.021 l 24.863
 30.521 l 25.988 30.521 26.113 30.411 26.113 29.63 c 26.113 26.779 l 26.113
 25.388 25.344 24.302 24.176 24.302 c 22.836 24.302 22.77 25.052 22.77 25.884
 c 22.77 31.193 l 20.418 31.021 l 20.418 30.521 l 21.668 30.521 21.668 30.478
 21.668 29.052 c 21.668 26.65 l 21.668 25.404 21.668 23.947 24.094 23.947
 c 24.992 23.947 25.699 24.392 26.164 25.388 c h
26.164 25.388 m f*
39.367 30.521 m 39.367 25.337 l 39.367 24.622 39.191 24.622 38.125 24.622
 c 38.125 24.122 l 38.652 24.138 39.5 24.173 39.902 24.173 c 40.297 24.173
 41.082 24.138 41.68 24.122 c 41.68 24.622 l 40.602 24.622 40.43 24.622 
40.43 25.337 c 40.43 35.232 l 39.852 35.134 l 39.785 35.134 39.77 35.15 
39.707 35.181 c 39.191 35.404 38.539 35.404 38.367 35.404 c 38.344 35.056
 l 38.492 35.056 38.922 35.056 39.367 34.911 c 39.227 34.841 38.973 34.681
 38.973 34.271 c 38.973 33.982 39.098 33.739 39.367 33.646 c 39.367 31.021
 l 35.945 31.021 l 35.945 32.833 l 35.945 34.318 37.16 35.056 38.344 35.056
 c 38.367 35.404 l 37.242 35.404 36.379 35.056 35.785 34.572 c 35.449 35.232
 34.559 35.404 33.898 35.404 c 33.883 35.056 l 34.156 35.056 34.695 35.001
 35.113 34.751 c 34.953 34.716 34.539 34.572 34.539 34.044 c 34.539 33.806
 34.637 33.536 34.988 33.404 c 34.938 33.228 34.938 33.021 34.938 32.849
 c 34.938 31.021 l 31.516 31.021 l 31.516 32.833 l 31.516 34.384 32.809 
35.056 33.883 35.056 c 33.898 35.404 l 32.328 35.404 30.508 34.556 30.508
 32.849 c 30.508 31.021 l 29.242 31.021 l 29.242 30.521 l 30.508 30.521 
l 30.508 25.337 l 30.508 24.622 30.328 24.622 29.258 24.622 c 29.258 24.122
 l 29.785 24.138 30.633 24.173 31.031 24.173 c 31.434 24.173 32.215 24.138
 32.809 24.122 c 32.809 24.622 l 31.738 24.622 31.559 24.622 31.559 25.337
 c 31.559 30.521 l 34.938 30.521 l 34.938 25.337 l 34.938 24.622 34.762 
24.622 33.691 24.622 c 33.691 24.122 l 34.219 24.138 35.066 24.173 35.461
 24.173 c 35.863 24.173 36.648 24.138 37.242 24.122 c 37.242 24.622 l 36.172
 24.622 35.996 24.622 35.996 25.337 c 35.996 30.521 l h
39.367 30.521 m f*
43.922 27.822 m 43.938 28.157 l 44.031 30.54 45.379 30.939 45.926 30.939
 c 47.57 30.939 47.73 28.782 47.73 28.157 c 43.938 28.157 l 43.922 27.822
 l 48.387 27.822 l 48.742 27.822 48.785 27.822 48.785 28.157 c 48.785 29.739
 47.922 31.29 45.926 31.29 c 44.066 31.29 42.59 29.646 42.59 27.642 c 42.59
 25.497 44.273 23.947 46.113 23.947 c 48.066 23.947 48.785 25.724 48.785
 26.025 c 48.785 26.185 48.66 26.22 48.582 26.22 c 48.434 26.22 48.406 26.126
 48.371 25.997 c 47.809 24.349 46.371 24.349 46.211 24.349 c 45.406 24.349
 44.77 24.825 44.406 25.419 c 43.922 26.185 43.922 27.247 43.922 27.822 
c h
43.922 27.822 m f*
54.535 20.286 m 54.535 20.302 l 54.531 20.306 l 54.531 20.314 l 54.52 20.337
 l 54.516 20.341 l 54.516 20.349 l 54.512 20.361 l 54.504 20.364 l 54.496
 20.376 l 54.492 20.384 l 54.484 20.396 l 54.465 20.415 l 54.457 20.431 
l 54.449 20.435 l 54.445 20.443 l 54.43 20.458 l 54.426 20.466 l 54.418 
20.47 l 54.41 20.482 l 54.387 20.505 l 54.379 20.517 l 54.309 20.587 l 54.301
 20.599 l 54.285 20.611 l 54.262 20.634 l 52.266 22.654 51.75 25.673 51.75
 28.122 c 51.75 30.907 52.359 33.697 54.328 35.689 c 54.535 35.888 54.535
 35.919 54.535 35.966 c 54.535 36.079 54.473 36.122 54.375 36.122 c 54.215
 36.122 52.777 35.04 51.832 33.009 c 51.012 31.243 50.824 29.47 50.824 28.122
 c 50.824 26.872 51 24.943 51.875 23.13 c 52.836 21.161 54.215 20.122 54.375
 20.122 c 54.473 20.122 54.535 20.169 54.535 20.286 c h
54.535 20.286 m f*
60.691 35.517 m 60.715 35.564 l 60.723 35.587 l 60.73 35.599 l 60.734 35.614
 l 60.738 35.626 l 60.742 35.634 l 60.746 35.646 l 60.75 35.654 l 60.754
 35.665 l 60.754 35.673 l 60.762 35.689 l 60.762 35.697 l 60.766 35.708 
l 60.766 35.712 l 60.77 35.72 l 60.77 35.806 l 60.77 35.982 60.625 36.122
 60.449 36.122 c 60.305 36.122 60.195 36.044 60.086 35.759 c 57.281 28.415
 l 57.246 28.314 57.203 28.22 57.203 28.122 c 57.203 28.079 57.203 28.044
 57.281 27.853 c 60.086 20.505 l 60.145 20.329 60.227 20.122 60.449 20.122
 c 60.625 20.122 60.77 20.267 60.77 20.447 c 60.77 20.489 60.77 20.525 60.691
 20.7 c 57.855 28.122 l h
60.691 35.517 m f*
63.68 25.357 m 65.375 27.005 l 67.871 29.212 68.836 30.075 68.836 31.677
 c 68.836 33.501 67.395 34.786 65.441 34.786 c 63.629 34.786 62.445 33.306
 62.445 31.884 c 62.445 30.989 63.25 30.989 63.293 30.989 c 63.57 30.989
 64.129 31.181 64.129 31.837 c 64.129 32.255 63.84 32.669 63.277 32.669 
c 63.152 32.669 63.117 32.669 63.07 32.654 c 63.438 33.697 64.301 34.286
 65.23 34.286 c 66.684 34.286 67.379 32.986 67.379 31.677 c 67.379 30.396
 66.574 29.13 65.695 28.138 c 62.625 24.716 l 62.445 24.54 62.445 24.509
 62.445 24.122 c 68.383 24.122 l 68.836 26.907 l 68.434 26.907 l 68.352 
26.427 68.242 25.724 68.082 25.482 c 67.969 25.357 66.914 25.357 66.559 
25.357 c h
63.68 25.357 m f*
71.035 30.611 m 71.027 30.591 l 71.023 30.579 l 71.023 30.564 l 71.016 
30.548 l 71.012 30.532 l 71.004 30.517 l 71.004 30.501 l 71 30.482 l 70.988
 30.447 l 70.98 30.411 l 70.969 30.376 l 70.961 30.337 l 70.949 30.29 l 
70.949 30.275 l 70.941 30.243 l 70.938 30.232 l 70.934 30.216 l 70.934 30.204
 l 70.93 30.193 l 70.93 30.185 l 70.926 30.177 l 70.926 30.154 l 70.922 
30.15 l 70.922 29.904 71.125 29.794 71.305 29.794 c 71.508 29.794 71.68 
29.943 71.742 30.04 c 71.797 30.138 71.887 30.497 71.945 30.736 c 72 30.943
 72.117 31.458 72.188 31.743 c 72.254 31.986 72.324 32.236 72.379 32.489
 c 72.5 32.95 72.523 33.036 72.848 33.501 c 73.16 33.947 73.688 34.529 74.527
 34.529 c 75.176 34.529 75.184 33.954 75.184 33.743 c 75.184 33.072 74.711
 31.833 74.527 31.361 c 74.402 31.044 74.355 30.943 74.355 30.755 c 74.355
 30.161 74.855 29.794 75.418 29.794 c 76.539 29.794 77.031 31.333 77.031
 31.505 c 77.031 31.654 76.887 31.654 76.855 31.654 c 76.695 31.654 76.684
 31.587 76.641 31.458 c 76.383 30.568 75.902 30.103 75.453 30.103 c 75.219
 30.103 75.176 30.263 75.176 30.497 c 75.176 30.755 75.23 30.9 75.434 31.404
 c 75.566 31.751 76.031 32.939 76.031 33.564 c 76.031 34.654 75.164 34.841
 74.57 34.841 c 73.645 34.841 73.016 34.271 72.68 33.825 c 72.598 34.591
 71.945 34.841 71.48 34.841 c 71 34.841 70.742 34.493 70.598 34.236 c 70.352
 33.825 70.195 33.181 70.195 33.126 c 70.195 32.982 70.352 32.982 70.387
 32.982 c 70.543 32.982 70.551 33.017 70.633 33.318 c 70.797 33.982 71.016
 34.529 71.453 34.529 c 71.742 34.529 71.816 34.279 71.816 33.982 c 71.816
 33.763 71.715 33.353 71.637 33.052 c 71.562 32.743 71.453 32.29 71.391 
32.044 c h
71.035 30.611 m f*
82.785 27.853 m 82.793 27.861 l 82.793 27.868 l 82.797 27.88 l 82.801 27.884
 l 82.805 27.896 l 82.809 27.9 l 82.809 27.911 l 82.812 27.915 l 82.816 
27.923 l 82.816 27.931 l 82.82 27.935 l 82.824 27.947 l 82.828 27.954 l 
82.832 27.97 l 82.836 27.982 l 82.84 27.989 l 82.844 28.001 l 82.848 28.009
 l 82.848 28.021 l 82.852 28.025 l 82.855 28.036 l 82.855 28.044 l 82.859
 28.048 l 82.859 28.056 l 82.863 28.06 l 82.863 28.122 l 82.863 28.173 82.863
 28.204 82.785 28.396 c 79.988 35.759 l 79.891 36.029 79.793 36.122 79.621
 36.122 c 79.445 36.122 79.301 35.982 79.301 35.806 c 79.301 35.759 79.301
 35.728 79.375 35.552 c 82.215 28.122 l 79.375 20.732 l 79.301 20.556 79.301
 20.525 79.301 20.447 c 79.301 20.267 79.445 20.122 79.621 20.122 c 79.828
 20.122 79.891 20.286 79.953 20.447 c h
82.785 27.853 m f*
85.992 22.439 m 85.988 22.423 l 85.98 22.407 l 85.977 22.396 l 85.969 22.364
 l 85.965 22.345 l 85.957 22.329 l 85.957 22.31 l 85.945 22.275 l 85.938
 22.239 l 85.926 22.204 l 85.918 22.169 l 85.914 22.15 l 85.902 22.103 l
 85.902 22.087 l 85.898 22.075 l 85.891 22.044 l 85.887 22.036 l 85.887 
22.021 l 85.883 22.013 l 85.883 21.982 l 85.883 21.732 86.082 21.626 86.262
 21.626 c 86.461 21.626 86.641 21.771 86.695 21.868 c 86.754 21.97 86.844
 22.329 86.898 22.564 c 86.953 22.775 87.078 23.29 87.145 23.572 c 87.211
 23.818 87.281 24.064 87.336 24.318 c 87.457 24.782 87.48 24.864 87.801 
25.329 c 88.121 25.775 88.648 26.357 89.484 26.357 c 90.133 26.357 90.141
 25.782 90.141 25.572 c 90.141 24.9 89.664 23.661 89.484 23.189 c 89.359
 22.872 89.312 22.775 89.312 22.583 c 89.312 21.989 89.809 21.626 90.379
 21.626 c 91.496 21.626 91.988 23.161 91.988 23.337 c 91.988 23.482 91.844
 23.482 91.812 23.482 c 91.652 23.482 91.641 23.415 91.598 23.29 c 91.344
 22.396 90.859 21.935 90.414 21.935 c 90.176 21.935 90.133 22.091 90.133
 22.329 c 90.133 22.583 90.188 22.728 90.387 23.232 c 90.523 23.579 90.984
 24.767 90.984 25.392 c 90.984 26.482 90.121 26.669 89.531 26.669 c 88.602
 26.669 87.973 26.103 87.637 25.654 c 87.559 26.423 86.898 26.669 86.438
 26.669 c 85.957 26.669 85.699 26.322 85.555 26.068 c 85.309 25.654 85.152
 25.009 85.152 24.954 c 85.152 24.81 85.309 24.81 85.344 24.81 c 85.5 24.81
 85.508 24.845 85.59 25.15 c 85.758 25.81 85.973 26.357 86.406 26.357 c 
86.695 26.357 86.773 26.111 86.773 25.81 c 86.773 25.595 86.676 25.185 86.594
 24.88 c 86.516 24.575 86.406 24.118 86.348 23.872 c h
85.992 22.439 m f*
99.48 24.263 m 99.586 24.263 l 99.605 24.267 l 99.625 24.267 l 99.641 24.271
 l 99.66 24.271 l 99.699 24.279 l 99.715 24.282 l 99.734 24.286 l 99.75 
24.29 l 99.77 24.298 l 99.785 24.302 l 99.805 24.314 l 99.816 24.318 l 99.832
 24.329 l 99.844 24.341 l 99.859 24.353 l 99.871 24.364 l 99.875 24.372 
l 99.879 24.376 l 99.887 24.388 l 99.891 24.392 l 99.898 24.407 l 99.902
 24.419 l 99.91 24.435 l 99.914 24.447 l 99.914 24.454 l 99.918 24.462 l
 99.922 24.478 l 99.922 24.497 l 99.926 24.509 l 99.926 24.536 l 99.926 
24.81 99.668 24.81 99.48 24.81 c 94.293 24.81 l 94.465 26.435 95.82 27.642
 97.566 27.642 c 99.48 27.642 l 99.66 27.642 99.926 27.642 99.926 27.915
 c 99.926 28.193 99.668 28.193 99.48 28.193 c 97.52 28.193 l 95.438 28.193
 93.734 26.56 93.734 24.544 c 93.734 22.482 95.457 20.884 97.52 20.884 c
 99.48 20.884 l 99.66 20.884 99.926 20.884 99.926 21.154 c 99.926 21.431
 99.668 21.431 99.48 21.431 c 97.566 21.431 l 95.82 21.431 94.465 22.642
 94.293 24.263 c h
99.48 24.263 m f*
102.883 28.079 m 107.723 21.689 l 107.82 21.552 107.875 21.525 107.957 
21.525 c 108.148 21.525 108.148 21.697 108.148 21.892 c 108.148 28.212 l
 108.148 28.841 108.246 28.997 108.758 29.013 c 108.828 29.013 109.016 29.021
 109.016 29.2 c 109.016 29.404 108.852 29.404 108.648 29.404 c 107.016 29.404
 l 106.812 29.404 106.633 29.404 106.633 29.2 c 106.633 29.013 106.836 29.013
 106.957 29.013 c 107.586 28.997 107.676 28.775 107.676 28.185 c 107.676
 24.681 l 104.293 29.243 l 103.98 29.013 l 107.75 23.919 l 107.75 22.306
 l 102.883 28.739 l 102.77 28.876 102.77 28.896 102.652 29.013 c 103.98 
29.013 l 104.293 29.243 l 104.18 29.404 104.145 29.404 103.891 29.404 c 
101.945 29.404 l 101.742 29.404 101.574 29.404 101.574 29.2 c 101.574 29.032
 101.742 29.013 101.809 29.013 c 102.117 28.978 102.324 28.798 102.438 28.657
 c 102.414 28.575 102.414 28.548 102.414 28.396 c 102.414 22.935 l 102.414
 22.337 102.324 22.134 101.754 22.126 c 101.633 22.126 101.441 22.114 101.441
 21.935 c 101.441 21.732 101.617 21.732 101.824 21.732 c 103.555 21.732 
l 103.758 21.732 103.926 21.732 103.926 21.935 c 103.926 22.114 103.746 
22.126 103.59 22.126 c 102.973 22.134 102.883 22.372 102.883 22.954 c h
102.883 28.079 m f*
113.312 24.138 m 113.312 24.236 l 113.309 24.333 l 113.305 24.427 l 113.293
 24.517 l 113.285 24.603 l 113.273 24.685 l 113.258 24.771 l 113.242 24.845
 l 113.223 24.923 l 113.199 24.997 l 113.18 25.068 l 113.156 25.134 l 113.129
 25.2 l 113.098 25.259 l 113.07 25.322 l 113.039 25.376 l 113 25.427 l 112.965
 25.478 l 112.93 25.525 l 112.848 25.607 l 112.805 25.642 l 112.762 25.673
 l 112.711 25.708 l 112.668 25.732 l 112.617 25.755 l 112.566 25.775 l 112.516
 25.79 l 112.406 25.814 l 112.348 25.818 l 112.289 25.818 l 111.762 25.818
 111.441 25.419 111.441 24.97 c 111.441 24.54 111.762 24.122 112.289 24.122
 c 112.48 24.122 112.691 24.189 112.852 24.329 c 112.895 24.364 112.914 
24.38 112.93 24.38 c 112.949 24.38 112.965 24.364 112.965 24.138 c 112.965
 22.954 112.406 21.993 111.871 21.466 c 111.699 21.294 111.699 21.259 111.699
 21.212 c 111.699 21.099 111.777 21.036 111.859 21.036 c 112.031 21.036 
113.312 22.267 113.312 24.138 c h
113.312 24.138 m f*
122.406 35.517 m 122.414 35.532 l 122.422 35.54 l 122.422 35.548 l 122.43
 35.564 l 122.438 35.587 l 122.445 35.599 l 122.449 35.614 l 122.457 35.626
 l 122.457 35.634 l 122.461 35.646 l 122.465 35.654 l 122.469 35.665 l 122.477
 35.681 l 122.477 35.697 l 122.48 35.708 l 122.48 35.712 l 122.484 35.72
 l 122.484 35.739 l 122.488 35.751 l 122.488 35.806 l 122.488 35.982 122.344
 36.122 122.168 36.122 c 122.023 36.122 121.91 36.044 121.801 35.759 c 119
 28.415 l 118.965 28.314 118.918 28.22 118.918 28.122 c 118.918 28.079 118.918
 28.044 119 27.853 c 121.801 20.505 l 121.859 20.329 121.941 20.122 122.168
 20.122 c 122.344 20.122 122.488 20.267 122.488 20.447 c 122.488 20.489 
122.488 20.525 122.406 20.7 c 119.57 28.122 l h
122.406 35.517 m f*
128.066 34.368 m 128.066 34.384 l 128.062 34.404 l 128.062 34.591 l 128.059
 34.614 l 128.055 34.634 l 128.051 34.65 l 128.043 34.665 l 128.043 34.681
 l 128.035 34.697 l 128.027 34.708 l 127.988 34.747 l 127.977 34.751 l 127.945
 34.767 l 127.93 34.767 l 127.918 34.771 l 127.91 34.771 l 127.898 34.775
 l 127.891 34.775 l 127.883 34.779 l 127.859 34.779 l 127.844 34.782 l 127.777
 34.782 l 127.766 34.786 l 127.699 34.786 l 126.707 33.759 125.301 33.759
 124.789 33.759 c 124.789 33.263 l 125.109 33.263 126.055 33.263 126.883
 33.681 c 126.883 25.388 l 126.883 24.81 126.836 24.622 125.395 24.622 c
 124.883 24.622 l 124.883 24.122 l 125.445 24.173 126.836 24.173 127.473
 24.173 c 128.117 24.173 129.508 24.173 130.07 24.122 c 130.07 24.622 l 
129.559 24.622 l 128.117 24.622 128.066 24.794 128.066 25.388 c h
128.066 34.368 m f*
135.746 27.853 m 135.754 27.868 l 135.758 27.88 l 135.762 27.884 l 135.762
 27.896 l 135.766 27.9 l 135.77 27.911 l 135.773 27.915 l 135.777 27.923
 l 135.777 27.931 l 135.781 27.935 l 135.781 27.947 l 135.789 27.954 l 135.793
 27.97 l 135.797 27.982 l 135.801 27.989 l 135.801 28.001 l 135.805 28.009
 l 135.809 28.021 l 135.812 28.025 l 135.816 28.036 l 135.816 28.056 l 135.82
 28.06 l 135.82 28.075 l 135.824 28.079 l 135.824 28.122 l 135.824 28.173
 135.824 28.204 135.746 28.396 c 132.945 35.759 l 132.852 36.029 132.754
 36.122 132.582 36.122 c 132.402 36.122 132.258 35.982 132.258 35.806 c 
132.258 35.759 132.258 35.728 132.34 35.552 c 135.172 28.122 l 132.34 20.732
 l 132.258 20.556 132.258 20.525 132.258 20.447 c 132.258 20.267 132.402
 20.122 132.582 20.122 c 132.789 20.122 132.852 20.286 132.914 20.447 c 
h
135.746 27.853 m f*
138.953 22.439 m 138.945 22.407 l 138.941 22.396 l 138.934 22.38 l 138.93
 22.364 l 138.926 22.345 l 138.922 22.329 l 138.918 22.31 l 138.91 22.275
 l 138.898 22.239 l 138.883 22.169 l 138.875 22.15 l 138.871 22.134 l 138.871
 22.118 l 138.863 22.087 l 138.859 22.075 l 138.855 22.06 l 138.855 22.044
 l 138.852 22.036 l 138.852 22.021 l 138.844 22.005 l 138.844 21.982 l 138.844
 21.732 139.043 21.626 139.223 21.626 c 139.426 21.626 139.598 21.771 139.66
 21.868 c 139.719 21.97 139.809 22.329 139.863 22.564 c 139.918 22.775 140.039
 23.29 140.105 23.572 c 140.176 23.818 140.242 24.064 140.301 24.318 c 140.418
 24.782 140.445 24.864 140.766 25.329 c 141.082 25.775 141.605 26.357 142.449
 26.357 c 143.094 26.357 143.102 25.782 143.102 25.572 c 143.102 24.9 142.629
 23.661 142.449 23.189 c 142.32 22.872 142.273 22.775 142.273 22.583 c 142.273
 21.989 142.773 21.626 143.34 21.626 c 144.461 21.626 144.949 23.161 144.949
 23.337 c 144.949 23.482 144.805 23.482 144.777 23.482 c 144.617 23.482 
144.605 23.415 144.559 23.29 c 144.305 22.396 143.824 21.935 143.375 21.935
 c 143.141 21.935 143.094 22.091 143.094 22.329 c 143.094 22.583 143.148
 22.728 143.352 23.232 c 143.484 23.579 143.949 24.767 143.949 25.392 c 
143.949 26.482 143.086 26.669 142.488 26.669 c 141.566 26.669 140.934 26.103
 140.602 25.654 c 140.52 26.423 139.863 26.669 139.398 26.669 c 138.918 
26.669 138.66 26.322 138.516 26.068 c 138.273 25.654 138.113 25.009 138.113
 24.954 c 138.113 24.81 138.273 24.81 138.305 24.81 c 138.461 24.81 138.473
 24.845 138.551 25.15 c 138.715 25.81 138.934 26.357 139.371 26.357 c 139.66
 26.357 139.738 26.111 139.738 25.81 c 139.738 25.595 139.637 25.185 139.559
 24.88 c 139.48 24.575 139.371 24.118 139.309 23.872 c h
138.953 22.439 m f*
152.441 24.263 m 152.551 24.263 l 152.566 24.267 l 152.586 24.267 l 152.605
 24.271 l 152.625 24.271 l 152.664 24.279 l 152.68 24.282 l 152.699 24.286
 l 152.715 24.29 l 152.73 24.298 l 152.75 24.302 l 152.766 24.314 l 152.777
 24.318 l 152.809 24.341 l 152.832 24.364 l 152.836 24.372 l 152.844 24.376
 l 152.848 24.388 l 152.859 24.4 l 152.863 24.407 l 152.867 24.419 l 152.867
 24.427 l 152.871 24.435 l 152.875 24.447 l 152.883 24.462 l 152.883 24.497
 l 152.887 24.509 l 152.887 24.536 l 152.887 24.81 152.633 24.81 152.441
 24.81 c 147.258 24.81 l 147.426 26.435 148.781 27.642 150.527 27.642 c 
152.441 27.642 l 152.621 27.642 152.887 27.642 152.887 27.915 c 152.887 
28.193 152.633 28.193 152.441 28.193 c 150.48 28.193 l 148.402 28.193 146.699
 26.56 146.699 24.544 c 146.699 22.482 148.418 20.884 150.48 20.884 c 152.441
 20.884 l 152.621 20.884 152.887 20.884 152.887 21.154 c 152.887 21.431 
152.633 21.431 152.441 21.431 c 150.527 21.431 l 148.781 21.431 147.426 
22.642 147.258 24.263 c h
152.441 24.263 m f*
155.848 28.079 m 160.684 21.689 l 160.785 21.552 160.84 21.525 160.918 
21.525 c 161.109 21.525 161.109 21.697 161.109 21.892 c 161.109 28.212 l
 161.109 28.841 161.211 28.997 161.723 29.013 c 161.793 29.013 161.977 29.021
 161.977 29.2 c 161.977 29.404 161.812 29.404 161.613 29.404 c 159.973 29.404
 l 159.773 29.404 159.594 29.404 159.594 29.2 c 159.594 29.013 159.801 29.013
 159.918 29.013 c 160.551 28.997 160.641 28.775 160.641 28.185 c 160.641
 24.681 l 157.258 29.243 l 156.945 29.013 l 160.711 23.919 l 160.711 22.306
 l 155.848 28.739 l 155.734 28.876 155.734 28.896 155.613 29.013 c 156.945
 29.013 l 157.258 29.243 l 157.145 29.404 157.109 29.404 156.855 29.404 
c 154.906 29.404 l 154.707 29.404 154.539 29.404 154.539 29.2 c 154.539 
29.032 154.707 29.013 154.77 29.013 c 155.074 28.978 155.289 28.798 155.398
 28.657 c 155.379 28.575 155.379 28.548 155.379 28.396 c 155.379 22.935 
l 155.379 22.337 155.289 22.134 154.715 22.126 c 154.594 22.126 154.402 
22.114 154.402 21.935 c 154.402 21.732 154.582 21.732 154.785 21.732 c 156.52
 21.732 l 156.719 21.732 156.891 21.732 156.891 21.935 c 156.891 22.114 
156.707 22.126 156.555 22.126 c 155.938 22.134 155.848 22.372 155.848 22.954
 c h
155.848 28.079 m f*
167.652 28.122 m 167.652 28.239 l 167.648 28.368 l 167.645 28.493 l 167.641
 28.622 l 167.629 28.892 l 167.609 29.177 l 167.582 29.47 l 167.547 29.779
 l 167.508 30.087 l 167.453 30.411 l 167.391 30.739 l 167.316 31.072 l 167.23
 31.407 l 167.129 31.747 l 167.023 32.091 l 166.895 32.435 l 166.754 32.779
 l 166.68 32.947 l 166.598 33.118 l 165.637 35.083 164.262 36.122 164.102
 36.122 c 164.008 36.122 163.941 36.064 163.941 35.966 c 163.941 35.919 
163.941 35.888 164.242 35.599 c 165.812 34.017 166.727 31.47 166.727 28.122
 c 166.727 25.388 166.137 22.572 164.148 20.556 c 163.941 20.364 163.941
 20.329 163.941 20.286 c 163.941 20.189 164.008 20.122 164.102 20.122 c 
164.262 20.122 165.699 21.212 166.645 23.243 c 167.461 25.001 167.652 26.779
 167.652 28.122 c h
167.652 28.122 m f*
Q Q
showpage
%%Trailer
end restore
%%EOF
